-2.2702096690191959638 -0.010779632220606721188 -0.017606378699175515012 0.095566746470577321193
-0.011153525282362075632 -2.3483597453069142702 -0.030138360766025273918 -0.029305129762729722337
-0.017780895100603637954 -0.030098049914502621183 -10.522151744557390884 0.033626134567738795444
0.095562769004997591415 -0.02930364365419851555 0.028389857254046576424 -10.349981765854305849