-0.030984591934711418204 -1.0928314062102553184 -0.017165622171015599423 -0.0027621951143935513304
1.0919100625764337487 -0.041544160970709780034 0.008465931554235011508 0.0061738885016487804469
0.016902943143012837818 -0.012198309415838937131 -0.012324884607574514497 -1.8649726312601639933
0.0041638154684704659428 -0.0057690228531335208118 1.8632267778692785942 -0.0085154663798661638791