-0.00067535956160195422752 -0.00022889225427336016964 0.036911073639149818981 -0.01656079555638747397
-0.00020273878875400476018 0.0014881151024068609099 0.018098855617713516253 0.025181348273098012186
-0.00027146270611220547388 0.00027072080639641818347 -0.0046687651020227800489 -0.00045095153235011901016
0.00069867121884078771474 0.0028387924511978500537 -0.0021139743977376507754 0.00014901321392078091489