0.0013038234135676874358 -0.0022320311667733275587 0.00016063034475261500416 0.045514576452080665603
-0.0020253231638366247028 -0.00023951921270633000209 -0.033696610597447766711 0.0014438783187100633337
-0.00084224338861471365753 3.2191221675720711705e-05 -0.0020878282757157734691 0.0014896555379642522406
-0.0034143552469657742141 2.6398318342128652438e-05 0.0032049418305612593048 0.00065169659093330392034