0.047071928103300075819 -0.14376260368351978514 0.014701909655174372205 0.0023041833405520397056
-0.08032987788877990476 -0.0022463030717603067396 -0.02337269564585940651 -9.0683782890830139144e-05
0.0012100243254751180764 -0.0045414637566567050975 -0.014364210336698742324 0.0019899662292542359514
-0.0002209743078463582977 -0.0020911827532658390505 -0.0097087470583954536135 0.0014758059346445912777