-5.7098607064457262438e-06 -0.0016479499308793231754 -0.10133694145472066372 -0.073088687044265368553
5.5182641499439670117e-05 -3.055236789524609528e-05 0.076749196478225006901 -0.14159833218162573565
0.00066221976247773212641 0.00129635742835530407 -0.000349229399046853883 -0.0096668265981983431817
0.00064569965694331085248 0.010693187477993597659 -0.017405860159203524057 -0.00092941454201253439864