-5.5692819609682817918e-05 3.4906525331772597339e-05 -0.00016722296563533725427 0.00012173595864261944129
1.6196148412688062327e-05 5.1621958973090172475e-05 0.00013749864847204348222 0.00021594211198047206872
-0.0021836787491664902232 0.0024528605159974624893 -0.0006481334911965981084 -0.0012800495556579579142
0.0044560427362582942512 0.0011935409578528652624 -0.00093929347856220300229 -0.00049552424529705220956
0.020589327907630936704 0.020847748049515311269 0.015304002399447451388 0.0073721399292220376326
0.021369476828017999748 -0.019641855464233103079 0.0075452769233847307231 -0.01729078325885986811
0.010471684833307872559 0.01120233285995960934 -0.023490903933777954743 -0.010890569996231440342
0.011486409363412624154 -0.013971885219087000138 -0.010762204314025655347 0.025437564004519963579
-0.021443577457207600029 0.01600293460052953573 -0.0080286580198228214844 0.015219568637904809863
0.017283001807572768299 0.022294733216728139513 0.013919765554895531176 0.0093210099031886990695
0.010635116780756265209 -0.013758326994830987963 -0.0063491134741275514347 0.026151423512929199144
-0.01398139181067240347 -0.0098805854305353563866 0.030139103025748396891 0.0057605543012045432733
0.0091749757123398174852 0.012638067499089829585 -0.025098957259913925316 -0.012722564222496507771
0.013873475105943347541 -0.011038936229868619859 -0.01384181157396893215 0.024490157571660002567
-0.020851953007335197882 -0.01679906689059676092 -0.014926472705968611351 -0.0036946402573399344214
-0.01640286194704278222 0.022751604711788272345 -0.0027684512688777225022 0.018368721871513792737
0.01297732020272824964 -0.01216553337626533754 -0.014155103924276999164 0.023011843777971816016
-0.010437928008373854524 -0.013578827476524332057 0.024451239182960420732 0.013960873577033700715
0.016543796238222288619 -0.021883951832349909927 0.0057838952343375413939 -0.017570780358138270161
-0.024773430141176746438 -0.017514038545228236693 -0.017039089691735297832 -0.0055494455778857089759