0.013942731371283529837 -0.016498721194728515477 0.000239962040639208772 -0.0001720933236945305781 0.00011847401885274895625
0.021015002403859520119 0.014430208418313602431 0.000332682980748473208 0.00040363194209572694944 -0.00027104857955650589257
-0.00015069065159167911359 -0.00021152568615948793011 0.00078259867917733624224 -0.0010451488491526896539 0.00061120857365355111407
0.00011016135392081971198 -0.00030725809228984322583 0.0021991793483221704769 0.0041642732451152332518 0.00037322011012495267613
0.014772359127218801997 -0.0031561784685604386477 0.0014850191985824510131 0.00074973957798341430217 -0.027866531138788740857