0.306554895028860519 -0.0029175154414603542488 0.00033278284152325017173 0.004373496352667390237
-0.0029175154414603542488 0.30977352437395605511 -0.0023679234555576333596 -0.00081120650071246722806
0.00033278284152325017173 -0.0023679234555576333596 0.09700124576507983265 -0.00074475284953037378284
0.004373496352667390237 -0.00081120650071246722806 -0.00074475284953037378284 0.097072414134212997583