-8.1086069401295924209e-05 -4.2985321231439319099e-05 5.0434250797480942985e-06 2.8845604244471236769e-05
4.8588967580189374406e-05 -9.0314972611221409297e-05 -1.8844091979837843852e-05 -4.7960283869359703093e-06
1.5058175282820834221e-05 -2.3935718743955587977e-05 -0.0013763781947379685223 -2.9694000581317058933e-06
3.5831664583184616208e-05 -1.1657108741291392466e-06 -7.7674111318857772814e-06 -0.0014208822421082972168