-2.4837369800093659955e-05 -1.292692893945120588e-05 1.1090587843290620189e-06 2.6415421992650348202e-06
1.5223422106881445511e-05 -2.7794153448988021909e-05 -2.5866558713273818934e-06 -4.1017988862845514392e-07
1.2919370184830373687e-06 -2.1213722052600594448e-06 -0.0001334583149991738619 7.9112654410042473012e-07
3.0730062494438399293e-06 -2.1006422672414532135e-07 3.0840408352277128814e-07 -0.00013779621125837223923