0.013071130371618496641 -0.0058479372087105472092 6.7216134221171395014e-06 -0.0020973288486307388977
0.0025685839983196133256 -0.0092512383221046833731 8.901898629152571235e-06 -0.00052779719489090060665
0.00013192423258402618202 0.0010085350488076303202 -5.9867607193737023045e-05 -5.9894287179843388493e-05
0.00089662993305235957463 -7.2701422149513527781e-05 -0.00033974924000015763528 -0.0017555008797220657095