0.00067332308197103367051 0.011190376570156642527 0.0021008419208996074318 8.868278115214013664e-06
0.01212247825102694132 -0.0029209647866628250107 0.00050981489235212972422 1.337310371483687495e-06
7.0360994986287206474e-05 -0.00017397990115321037121 1.4011084229307753176e-05 4.0857283359396817581e-05
-0.00016084333375980831566 0.00040107583763965634497 0.0016169629412035070593 -0.0002424735550230323021