-0.037017396041612887769 1.0940313807507560107 -0.016869084066056111437 -0.0024524031368477706636
-1.0828883853212132315 -0.039460572063466300974 -0.0031810366114223193913 -0.0028361779696507842009
0.017081032146121239573 0.0057803790646118579505 -0.0075952126319386824294 -1.865459041212377711
0.0042756917367963893917 0.0027335301025758064301 1.8636179713970872918 -0.01282779151354558958