0.045936992942198641432 0.054252269284454736342 0.00042498930696612745002 -0.0019741573939180100117 0.00043094355766638961286
-0.064232829438624322593 0.047404852479611098159 -0.0021935716614672842208 -0.00063031178029529933825 0.0004588082850060309849
9.8601858227257910207e-05 0.00067728124885074606279 0.0061772076411098246138 -0.011822188081738155274 0.00099957872259102877738
0.003122638969650614639 0.00031383903363684515549 0.021579868172486776912 0.050704331159241687599 0.0020302890530348731597
0.027352168248178244936 0.00020696945495192920102 0.0045270035693723139833 0.0029062340097137200068 -0.027866531138788740857