-8.3508304654216039846e-05 4.1023290589647366485e-05 7.4905230519079087602e-06 1.4579367640719690063e-05
-5.0633903071011872505e-05 -8.6058992231765807563e-05 9.5974397921984082939e-06 -5.4295009411734301933e-07
7.982011962857993515e-06 8.2610428152635324536e-06 -0.0013677155059758573825 7.8075235728219079999e-06
1.7418378799722893308e-05 -2.267222658202675399e-06 1.024801004516656806e-06 -0.0014177683879109707291