0.00010396707227013220979 5.1881981456398479314e-06 -7.9783401366067285853e-05 0.014238280109492665662
-0.00027666225822057301806 5.4094577234658483209e-06 -0.010452007867686571169 0.00042630636789184588736
-0.00025938915082758068299 3.5819244654487360333e-05 -0.00057368270237520243345 0.00046526866615970516186
-0.0010628551754188260859 6.8682708949078122586e-06 0.0010542062673639474111 0.00020272189664090659554