-0.0018517626003301402692 -1.7800495980461524009e-05 -0.02486969018539252757 0.11211032273762099043
0.00042025180722599591145 1.2145846159344712845e-05 0.093947904238902466001 -0.012780794496928529411
0.0071503798767486382096 -0.0010498922611234466195 0.016284925690981229274 -0.0017251016489012319446
-0.008407167714987534568 0.00068314507917460753645 0.0035994218666593660177 0.0037887142214176839847