-5.7098607064297249444e-06 -0.0016479499308793090807 -0.10133694145472076087 -0.07308868704426545182
5.5182641499470420801e-05 -3.0552367895252349772e-05 0.076749196478225090168 -0.14159833218162590218
0.00066221976247773494534 0.0012963574283553051542 -0.00034922939904686510449 -0.0096668265981983518553
0.00064569965694331182826 0.010693187477993609802 -0.017405860159203551812 -0.000929414542012535266