0.014621814980847703744 -0.015445586584829851945 0.00025021089118661089465 0.00073593226516372584316 0.00056474812259743210549
0.020403114064568836361 0.013550749970045348688 -0.0001496333273751734741 0.00011811098047437334135 -0.0001669740406698616206
-0.00033368520700442723175 -0.00023124884473289152509 0.0036626447099444865013 -0.00060295055019454150275 -0.00021438668737094402142
2.6576412461858935857e-05 -0.0001346423180093786259 0.0025639261662528732393 0.00077710437349043121492 -0.00039589495811411738301
0.0023244882893073389243 -0.01592253057533276131 -0.00055335287817746446008 0.0013927267422543434389 -0.028952359675576164882