-6.4427804801904639201e-07 -0.00011590624701476931393 0.011311256037794120699 -0.0051194170679301764793 -0.013356863654377307618
7.0286624744039315584e-06 0.00027108397922414603038 0.0055902047201371934601 0.0076751141418152420831 -0.019143414690163930436
-0.00010579016905024869559 7.1087169808228763178e-05 -0.0014359459686399947062 -0.00016154510124108642272 5.5220838030473498205e-06
0.00020678468816382841624 0.0008871710392926834398 -0.0006589902597434807701 2.871782906797844018e-05 0.0004328895274615374416
0.00092571615630876913534 -0.31986954757044805397 -0.00037461025543794791324 0.0057201961496831403228 -0.0016999603243114049141