0.0045890127661813474857 -0.014078601106840582871 0.0014516277693695442408 -3.5790698353853361625e-06 -0.00028532025254899727115
-0.0078715010150625149693 -0.00020154207410010062406 -0.0021207371518277545047 -4.7287141428130084671e-06 -2.0586214475689580992e-05
0.00012485510311202089825 -0.00044421532357072552634 -0.001398654018893771573 0.00018962194494363216412 0.0014302246297258403886
-3.6321620719723217023e-06 -0.00020587627644296115212 -0.00096751313514872048019 0.0001430147262079928391 -0.0023210647531930793733
-0.0057362362389497649484 -0.0013334768691453454271 0.17931582538647750091 0.0014627187554792462233 -0.0017674315393772473733