-0.035014418304836904261 -1.1069663540541925251 -0.0029699117966793435811 0.0099055888580866138099
1.0781078047036960488 -0.038163929294664514225 0.033723701056964781875 0.0085321802872680482105
-0.009176418693885083494 -0.036969921672714206595 -0.014574866450304259716 -1.8821634220262701831
-0.0076840459506088282238 -0.01216748201447121272 1.8459091535546974239 -0.005421163138944849226