0 0 0 -0 0 0 0 0 -0 0 -0.00016887035411315801407 0.00011489986811033865873 0.00016325177477691341522 5.8055794059859673671e-05 2.2786486839662647085e-05 -2.5202836191147723408e-05 -0.00012360819565457331235 1.1850438597533028207e-07 1.9608003060177920767e-05 1.9004623717511452544e-05
-0 0 0 0 -0 0 0 -0 -0 -0 -0.00015578876449681805755 -2.8865120012591900854e-05 0.00014866524483656145292 -2.3989467863912912232e-05 -7.9745166213069542511e-05 -5.7783068896254253632e-05 1.2603334392047434189e-06 -0.00012461705705242080125 3.8776391399290794986e-05 -1.3523815175789157412e-05
-0 -0 -0 0 0 -0 -0 -0 0 0 -1.7842397074408766902e-05 -0.00038996512457327832607 0.00016832959004183938338 0.00020125959523449398316 0.0010536534165260195029 0.0016594660882757192658 -6.9744667261739339936e-05 -0.00028114326170703703807 -0.0014216450281288599451 0.0010345817561981515351
0 -0 0 -0 0 0 0 -0 0 -0 -1.2071326902493263194e-05 0.00013002102399090794131 -0.00017627277036123348568 0.00018069471669506290395 0.0013612194816365365269 -0.0012250596991305318095 7.5157952671082550299e-05 0.00054498110707626836249 0.0008456219844421161095 0.0017493097471543302655
-0 -0 0 0 -0 -0 0 -0 0 0 9.500543706782223777e-06 -2.6127007422938961357e-05 0.00082603345853227985122 -0.00038554048303553433959 0.00060196944265908012249 -0.0007178335380329153902 0.0026132166019817828009 0.00099287074073739554729 0.0047550200841576430871 -0.0029047425707385957951
-0 0 -0 -0 -0 0 -0 -0 0 0 -6.5519910846872388743e-06 4.5295640369709366227e-05 -0.00032429327289088482299 -0.00088208683718613142485 0.00058904813696508651847 0.00072132576136405186524 0.00075351066074518294712 0.0032774619579920101151 0.0018161987048450625119 0.0046427974742823657078
-0 -0 0 -0 -0 -0 -0 0 0 -0 -1.4099212057797093207e-05 8.1072175795232550178e-05 0.00037653479926907538686 -0.00039848147283525679708 -0.0007268460997646465898 9.0102830771746059602e-05 0.0054032904626099900747 -0.0013858009437423765304 -0.0021396119450568700307 0.00089190203281522913072
0 -0 -0 -0 0 -0 -0 -0 -0 -0 1.34493281661111587e-05 0.00038844205419352376531 0.00054574399231581101951 0.00038067755466711231723 6.8119962079812642762e-05 0.00052993549366690058562 -0.0008006503592621900655 -0.0047929076067659750343 0.0028926524793455063271 0.0023674105208826906263
0 -0 0 0 -0 0 -0 -0 0 0 -6.9560050071602366457e-06 4.0338374876425799043e-05 -0.00042009284356630123254 -0.00089174138637556753934 0.0006496467681444614839 0.00082259023618065489104 -0.00042702650808225292014 -0.0030590099534041803771 -0.0013092981023206629824 -0.0045618259869128164816
-0 -0 -0 0 0 0 -0 0 -0 -0 -1.1786338965102658615e-05 4.6017827545834284644e-05 -0.00092394349978165094678 0.00055388746209047621215 -0.00071426100071835419304 0.00066428117033926652787 0.0023729467270369873806 0.0011274343618445530936 0.0041678317256611434674 -0.0022268979920952738059
-0 0 0 -0 0 -0 -0 -0 -0 -0 1.7783992131195973613e-05 0.0004460230735010821553 0.00046176693065713318243 0.00055572778617214322813 0.00042139416867893243236 0.00035973517428643442999 0.0013448786781596938546 0.003912981712570361495 -0.0028581006803671555466 -0.0019132426885216055092
-0 -0 -0 -0 0 0 0 -0 -0 0 1.5332083108300309868e-05 -0.00010060282419290207461 -0.00051135670912543797727 0.00031661441414033406104 0.0006265071227040772562 -0.00035880110896581869076 0.0046920086308489322366 -0.0022475159871296391569 -0.0012878028208082236902 0.0014613553643361692092
0 0 -0 0 0 0 0 -0 0 0 8.8336989917870283479e-06 5.9256770859319925362e-06 0.00068117952912348739367 -0.00019171568968944505736 -0.00084981872783413292972 0.00094241085319633766115 0.0052981649758176915799 -0.00098952410004077197975 -0.002278762204727891906 0.00078374686201456377453
0 -0 -0 -0 0 -0 -0 -0 -0 0 -3.9802023209081467689e-06 -2.1976165487345311221e-05 -0.00034608444073392990396 -0.00069546754423572339655 -0.001042497376627635414 -0.00080261764545203550473 0.00016327906738962329365 0.0045484214586835169242 -0.0025233660645862720714 -0.0023134461980834361908
-0 -0 0 0 -0 -0 0 -0 0 0 -5.429843397418306231e-06 8.4825514997117110422e-05 -0.00073843961721061022584 0.00080885398025812369881 -0.00067881264698346093812 8.4024211605460320676e-05 -0.0022785269684525663071 -0.00055902716729837244759 -0.0038855366033687319116 0.0032314648600936099129
0 -0 0 0 -0 -0 0 0 -0 -0 1.9935653723311666127e-06 0.00019688475484430881138 -0.00069760336124651683987 -0.00068582649503486775577 9.3837911451284363373e-05 0.0008569300294131300226 0.0010389447116818831089 0.0032504259974644560127 0.0025091153794223504392 0.0037179487878641493542
-0 0 0 0 0 -0 -0 -0 -0 0 -8.7441501960808664816e-07 -1.9557718478009077936e-05 -0.00035285642717848781161 -0.00066044830210609350822 -0.00094502917322328956144 -0.00082183071739688740281 9.6907349179054864301e-05 -0.0047660637000265038479 0.0025089191582714385695 0.0025279652230270365822
0 0 -0 0 -0 -0 -0 0 -0 -0 -1.2232348650061955218e-05 2.1792719798281874544e-06 -0.00069067592922905098832 0.00022574987297617376734 0.00095265214991124673189 -0.00094536325681069202382 0.0050446646815934725536 -0.00079390672919397195333 -0.002361557470556688472 0.00067817015293263884987
-0 0 -0 0 0 -0 0 0 0 -0 3.5663747607013469733e-07 0.00024807083517236765309 -0.00066386784780643384035 -0.00074003654173102225138 0.00050735847890972640001 0.00033503714908630558142 -0.0013084891598677827768 -0.0032740117147850968451 -0.0024960202516831112539 -0.0037515803356492189412
-0 -0 0 0 0 0 -0 0 -0 -0 1.0184482267449851374e-05 2.5962246950627105565e-05 0.00067580028781183561735 -0.00081452085234374235322 0.00027135555289547325358 -0.00051715283343154133493 -0.0022728791001908731778 6.1950038925881698048e-05 -0.0038666738864880285421 0.0038212134651506527577