-2.5011782701523495797e-05 0.0019142001578722961982 -0.14114713969262052129 0.027114699499974689173
-1.1601768579423750341e-05 -0.00038251112734888771238 0.065371979747455455367 0.13163470800028415075
0.0033463827224993556581 -0.0088167391237624105627 0.0018333870853170894551 -0.003635361758139810627
-0.0011712603750996285808 0.0040437562114642895683 -0.011951063426327046199 0.001446592237254350731