-0.028924795680978800799 -1.0999147252037781985 -0.027399901704961843185 0.0047050797898302281624
1.0772824739731994281 -0.047317255122039894588 0.0099195938927734254864 0.0025343479760161660534
0.029408312345141431748 -0.01716757564326929289 0.0057533155665935135914 -1.8649066614156224464
0.0032634366567004628734 -0.0042541482698593841016 1.8606687411145066413 -0.027227707695035442692