-2.4697236203179883307e-05 -1.2988729244954146653e-05 1.1350232467254440982e-06 2.6162170955794360826e-06
1.504480166687794144e-05 -2.7634113779819072758e-05 -2.5706736298044066081e-06 -4.1484640810676530563e-07
1.2870441156157086338e-06 -2.1231959707027390312e-06 -0.00013379601565937160389 1.3331739017303540351e-06
3.0542041217194180492e-06 -2.0322746202063751336e-07 -1.318408592407912207e-06 -0.00013676025019120364979