-4.0649846285643176759e-06 -0.00045730852925434539334 -0.0018746201521626796108 0.0045731866607020346671
-3.159898023629921954e-05 -0.0011975249957504184757 0.0007599925802415876579 0.0041638973770743385044
6.3690438947055022447e-05 0.0016187284689121593691 -0.0011745098080718013259 -0.0029434869712902547549
4.4967454668651881278e-05 9.0804498287549588508e-05 0.0029212600015057718118 -0.0023323466025103522722