0.0018008678524337464692 -0.0010156502822676939136 1.1533621267124695166e-08 0.003599283314373089189
-0.00083261314202477231926 -0.0025465704976462355882 -1.3762811321982335933e-05 0.00030278335717926488846
0.0010966827898536953348 0.00098297939709424088026 7.6958295181351086623e-05 -6.9673859959971812532e-05
-0.0029314195346150967621 0.0011590857340863949896 -1.1556830284143228395e-06 -0.0007035894709863783859