-0.0045728554521661394019 -7.746043742510443249e-05 -0.003484118575854959661 1.6430556342458894599e-05
-0.0040606518901265542532 -0.001614158619329238804 -0.00031517825225211394203 -2.3216644167162908582e-05
0.0029761747408196576221 -0.0013392177998606358096 -0.00017376172821064511036 -8.7393344479760304267e-05
0.0021806827284840267674 0.0027587602424842105203 0.00095526713493856985331 4.6117857461806425296e-05