-0.013688966788875206806 0.02645066996866805506
0.048333808102751292524 0.0072460243236107729423
0.019998858531128607674 0.025309006175085906054
-0.045164827248749629673 0.020339858383877112979
0.00036980374383677275816 -0.010290759306161662012
0.022364726882811568343 0.028432464988367930209