-0.013688966782386239457 0.026450669947616377298
0.048333808072654055321 0.007246024316687595633
0.019998858519495850417 0.025309006153808773221
-0.045164827221235395727 0.020339858368583343257
0.00036980374165914684003 -0.010290759300615034619
0.022364726868318061254 0.0284324649708525036