/*---------------------------------------------------------------------------*\
| =========                 |                                                 |
| \\      /  F ield         | OpenFOAM: The Open Source CFD Toolbox           |
|  \\    /   O peration     | Version:  2212                                  |
|   \\  /    A nd           | Website:  www.openfoam.com                      |
|    \\/     M anipulation  |                                                 |
\*---------------------------------------------------------------------------*/
Build  : _70874860-20230612 OPENFOAM=2212 patch=230612 version=2212
Arch   : "LSB;label=32;scalar=64"
Exec   : redlum-neglectedPressure
Date   : Feb 19 2025
Time   : 17:54:31
Host   : REN-1466-1-P568
PID    : 34509
I/O    : uncollated
Case   : /media/vresseguier/55222cef-2cd1-457f-83ca-21f4b445bbbb/red_lum_data/RedLUM/data_red_lum_cpp/LESRe100/ROM_ref/Neg/Hyp_1_Sto_1_adv_1_Int_1_DEIMInt_fullStressFunction_inf_1_pod_H1
nProcs : 1
trapFpe: Floating point exception trapping enabled (FOAM_SIGFPE).
fileModificationChecking : Monitoring run-time modified files using timeStampMaster (fileModificationSkew 5, maxFileModificationPolls 20)
allowSystemOperations : Allowing user-supplied system call operations

// * * * * * * * * * * * * * * * * * * * * * * * * * * * * * * * * * * * * * //
argv[0] = redlum-neglectedPressure
---------------------------------------------------------
Simulation type:"LES"
LESmodel:"Smagorinsky"
Simulation type LES Smagorinsky, DEIM will be performed on non linear term
DEIM will be perfomed on fullStressFunction terms.
 Stochastic Hyperreduction  will be perfomed
---------------------------------------------------------
RedLUM simulate (ver:9a6ca9b0) START
Ithaca-FV POD decompose U field
-------------------------------------------------------------------------------------------
The POD is performing with the following parameters :
Field : U
Number of modes : 4
POD Hilbert space : H1
Weight for the boundary conditions (0 for L2 POD Hilbert space) : 0
Patch for the boundary conditions(inlet by default) used in L2wBC : inlet
start time : 2
End time : 32
Number of snapshots : 31
Number of test snapshots : 31
Number of blocks : 2
Centered datas or not : 1 (1 centered, 0 not centered)
Name of eigensolver used : spectra
Results folder : ITHACAoutput
Computing the mean of U field
######### Exporting the Data for U #########
100% [||||||||||||||||||||||||||||||||||||||||||||||||||||||||||||]

Computing the covariance matrix of the U field
q = 15
r = 1
nSnapshot = 31
nBlocks = 2

######### Reading the Data for U #########
 17% [||||||||||                                                  ] 23% [||||||||||||||                                              ] 29% [|||||||||||||||||                                           ] 35% [|||||||||||||||||||||                                       ] 41% [||||||||||||||||||||||||                                    ] 47% [||||||||||||||||||||||||||||                                ] 52% [|||||||||||||||||||||||||||||||                             ] 58% [|||||||||||||||||||||||||||||||||||                         ] 64% [||||||||||||||||||||||||||||||||||||||                      ] 70% [||||||||||||||||||||||||||||||||||||||||||                  ] 76% [|||||||||||||||||||||||||||||||||||||||||||||               ] 82% [|||||||||||||||||||||||||||||||||||||||||||||||||           ] 88% [||||||||||||||||||||||||||||||||||||||||||||||||||||        ] 94% [||||||||||||||||||||||||||||||||||||||||||||||||||||||||    ]100% [||||||||||||||||||||||||||||||||||||||||||||||||||||||||||||]
Adding the triangular block [0:14]x[0:14] to the covariance matrix

######### Reading the Data for U #########
 56% [|||||||||||||||||||||||||||||||||                           ] 59% [|||||||||||||||||||||||||||||||||||                         ] 62% [|||||||||||||||||||||||||||||||||||||                       ] 65% [|||||||||||||||||||||||||||||||||||||||                     ] 68% [|||||||||||||||||||||||||||||||||||||||||                   ] 71% [|||||||||||||||||||||||||||||||||||||||||||                 ] 75% [|||||||||||||||||||||||||||||||||||||||||||||               ] 78% [||||||||||||||||||||||||||||||||||||||||||||||              ] 81% [||||||||||||||||||||||||||||||||||||||||||||||||            ] 84% [||||||||||||||||||||||||||||||||||||||||||||||||||          ] 87% [||||||||||||||||||||||||||||||||||||||||||||||||||||        ] 90% [||||||||||||||||||||||||||||||||||||||||||||||||||||||      ] 93% [||||||||||||||||||||||||||||||||||||||||||||||||||||||||    ] 96% [||||||||||||||||||||||||||||||||||||||||||||||||||||||||||  ]100% [||||||||||||||||||||||||||||||||||||||||||||||||||||||||||||]
Adding the triangular block [15:29]x[15:29] to the covariance matrix

######### Reading the Data for U #########
 17% [||||||||||                                                  ] 23% [||||||||||||||                                              ] 29% [|||||||||||||||||                                           ] 35% [|||||||||||||||||||||                                       ] 41% [||||||||||||||||||||||||                                    ] 47% [||||||||||||||||||||||||||||                                ] 52% [|||||||||||||||||||||||||||||||                             ] 58% [|||||||||||||||||||||||||||||||||||                         ] 64% [||||||||||||||||||||||||||||||||||||||                      ] 70% [||||||||||||||||||||||||||||||||||||||||||                  ] 76% [|||||||||||||||||||||||||||||||||||||||||||||               ] 82% [|||||||||||||||||||||||||||||||||||||||||||||||||           ] 88% [||||||||||||||||||||||||||||||||||||||||||||||||||||        ] 94% [||||||||||||||||||||||||||||||||||||||||||||||||||||||||    ]100% [||||||||||||||||||||||||||||||||||||||||||||||||||||||||||||]
Adding the square block [15:29]x[0:14] to the covariance matrix

######### Reading the Data for U #########
100% [||||||||||||||||||||||||||||||||||||||||||||||||||||||||||||]
Adding the triangular block [30:30]x[30:30] to the covariance matrix

######### Reading the Data for U #########
 17% [||||||||||                                                  ] 23% [||||||||||||||                                              ] 29% [|||||||||||||||||                                           ] 35% [|||||||||||||||||||||                                       ] 41% [||||||||||||||||||||||||                                    ] 47% [||||||||||||||||||||||||||||                                ] 52% [|||||||||||||||||||||||||||||||                             ] 58% [|||||||||||||||||||||||||||||||||||                         ] 64% [||||||||||||||||||||||||||||||||||||||                      ] 70% [||||||||||||||||||||||||||||||||||||||||||                  ] 76% [|||||||||||||||||||||||||||||||||||||||||||||               ] 82% [|||||||||||||||||||||||||||||||||||||||||||||||||           ] 88% [||||||||||||||||||||||||||||||||||||||||||||||||||||        ] 94% [||||||||||||||||||||||||||||||||||||||||||||||||||||||||    ]100% [||||||||||||||||||||||||||||||||||||||||||||||||||||||||||||]
Adding the square block [30:30]x[0:14] to the covariance matrix

######### Reading the Data for U #########
 56% [|||||||||||||||||||||||||||||||||                           ] 59% [|||||||||||||||||||||||||||||||||||                         ] 62% [|||||||||||||||||||||||||||||||||||||                       ] 65% [|||||||||||||||||||||||||||||||||||||||                     ] 68% [|||||||||||||||||||||||||||||||||||||||||                   ] 71% [|||||||||||||||||||||||||||||||||||||||||||                 ] 75% [|||||||||||||||||||||||||||||||||||||||||||||               ] 78% [||||||||||||||||||||||||||||||||||||||||||||||              ] 81% [||||||||||||||||||||||||||||||||||||||||||||||||            ] 84% [||||||||||||||||||||||||||||||||||||||||||||||||||          ] 87% [||||||||||||||||||||||||||||||||||||||||||||||||||||        ] 90% [||||||||||||||||||||||||||||||||||||||||||||||||||||||      ] 93% [||||||||||||||||||||||||||||||||||||||||||||||||||||||||    ] 96% [||||||||||||||||||||||||||||||||||||||||||||||||||||||||||  ]100% [||||||||||||||||||||||||||||||||||||||||||||||||||||||||||||]
Adding the square block [30:30]x[15:29] to the covariance matrix

Total varying L2 energy for U : 0.18077632

Computing the mean of gradU field
######### Exporting the Data for gradU #########
100% [||||||||||||||||||||||||||||||||||||||||||||||||||||||||||||]

Computing the covariance matrix of the gradU field
q = 15
r = 1
nSnapshot = 31
nBlocks = 2

######### Reading the Data for gradU #########
 17% [||||||||||                                                  ] 23% [||||||||||||||                                              ] 29% [|||||||||||||||||                                           ] 35% [|||||||||||||||||||||                                       ] 41% [||||||||||||||||||||||||                                    ] 47% [||||||||||||||||||||||||||||                                ] 52% [|||||||||||||||||||||||||||||||                             ] 58% [|||||||||||||||||||||||||||||||||||                         ] 64% [||||||||||||||||||||||||||||||||||||||                      ] 70% [||||||||||||||||||||||||||||||||||||||||||                  ] 76% [|||||||||||||||||||||||||||||||||||||||||||||               ] 82% [|||||||||||||||||||||||||||||||||||||||||||||||||           ] 88% [||||||||||||||||||||||||||||||||||||||||||||||||||||        ] 94% [||||||||||||||||||||||||||||||||||||||||||||||||||||||||    ]100% [||||||||||||||||||||||||||||||||||||||||||||||||||||||||||||]
Adding the triangular block [0:14]x[0:14] to the covariance matrix

######### Reading the Data for gradU #########
 56% [|||||||||||||||||||||||||||||||||                           ] 59% [|||||||||||||||||||||||||||||||||||                         ] 62% [|||||||||||||||||||||||||||||||||||||                       ] 65% [|||||||||||||||||||||||||||||||||||||||                     ] 68% [|||||||||||||||||||||||||||||||||||||||||                   ] 71% [|||||||||||||||||||||||||||||||||||||||||||                 ] 75% [|||||||||||||||||||||||||||||||||||||||||||||               ] 78% [||||||||||||||||||||||||||||||||||||||||||||||              ] 81% [||||||||||||||||||||||||||||||||||||||||||||||||            ] 84% [||||||||||||||||||||||||||||||||||||||||||||||||||          ] 87% [||||||||||||||||||||||||||||||||||||||||||||||||||||        ] 90% [||||||||||||||||||||||||||||||||||||||||||||||||||||||      ] 93% [||||||||||||||||||||||||||||||||||||||||||||||||||||||||    ] 96% [||||||||||||||||||||||||||||||||||||||||||||||||||||||||||  ]100% [||||||||||||||||||||||||||||||||||||||||||||||||||||||||||||]
Adding the triangular block [15:29]x[15:29] to the covariance matrix

######### Reading the Data for gradU #########
 17% [||||||||||                                                  ] 23% [||||||||||||||                                              ] 29% [|||||||||||||||||                                           ] 35% [|||||||||||||||||||||                                       ] 41% [||||||||||||||||||||||||                                    ] 47% [||||||||||||||||||||||||||||                                ] 52% [|||||||||||||||||||||||||||||||                             ] 58% [|||||||||||||||||||||||||||||||||||                         ] 64% [||||||||||||||||||||||||||||||||||||||                      ] 70% [||||||||||||||||||||||||||||||||||||||||||                  ] 76% [|||||||||||||||||||||||||||||||||||||||||||||               ] 82% [|||||||||||||||||||||||||||||||||||||||||||||||||           ] 88% [||||||||||||||||||||||||||||||||||||||||||||||||||||        ] 94% [||||||||||||||||||||||||||||||||||||||||||||||||||||||||    ]100% [||||||||||||||||||||||||||||||||||||||||||||||||||||||||||||]
Adding the square block [15:29]x[0:14] to the covariance matrix

######### Reading the Data for gradU #########
100% [||||||||||||||||||||||||||||||||||||||||||||||||||||||||||||]
Adding the triangular block [30:30]x[30:30] to the covariance matrix

######### Reading the Data for gradU #########
 17% [||||||||||                                                  ] 23% [||||||||||||||                                              ] 29% [|||||||||||||||||                                           ] 35% [|||||||||||||||||||||                                       ] 41% [||||||||||||||||||||||||                                    ] 47% [||||||||||||||||||||||||||||                                ] 52% [|||||||||||||||||||||||||||||||                             ] 58% [|||||||||||||||||||||||||||||||||||                         ] 64% [||||||||||||||||||||||||||||||||||||||                      ] 70% [||||||||||||||||||||||||||||||||||||||||||                  ] 76% [|||||||||||||||||||||||||||||||||||||||||||||               ] 82% [|||||||||||||||||||||||||||||||||||||||||||||||||           ] 88% [||||||||||||||||||||||||||||||||||||||||||||||||||||        ] 94% [||||||||||||||||||||||||||||||||||||||||||||||||||||||||    ]100% [||||||||||||||||||||||||||||||||||||||||||||||||||||||||||||]
Adding the square block [30:30]x[0:14] to the covariance matrix

######### Reading the Data for gradU #########
 56% [|||||||||||||||||||||||||||||||||                           ] 59% [|||||||||||||||||||||||||||||||||||                         ] 62% [|||||||||||||||||||||||||||||||||||||                       ] 65% [|||||||||||||||||||||||||||||||||||||||                     ] 68% [|||||||||||||||||||||||||||||||||||||||||                   ] 71% [|||||||||||||||||||||||||||||||||||||||||||                 ] 75% [|||||||||||||||||||||||||||||||||||||||||||||               ] 78% [||||||||||||||||||||||||||||||||||||||||||||||              ] 81% [||||||||||||||||||||||||||||||||||||||||||||||||            ] 84% [||||||||||||||||||||||||||||||||||||||||||||||||||          ] 87% [||||||||||||||||||||||||||||||||||||||||||||||||||||        ] 90% [||||||||||||||||||||||||||||||||||||||||||||||||||||||      ] 93% [||||||||||||||||||||||||||||||||||||||||||||||||||||||||    ] 96% [||||||||||||||||||||||||||||||||||||||||||||||||||||||||||  ]100% [||||||||||||||||||||||||||||||||||||||||||||||||||||||||||||]
Adding the square block [30:30]x[15:29] to the covariance matrix

Total varying L2 energy for gradU : 0.43496303

Total varying energy H1 : 0.61573935

Performing the eigen decomposition
Using Spectra EigenSolver 
% of varying H1 energy captures by the modes for U : 98.750218%

Computing the spatial modes of the U field
######### Exporting the Data for U #########
 25% [|||||||||||||||                                             ] 50% [||||||||||||||||||||||||||||||                              ] 75% [|||||||||||||||||||||||||||||||||||||||||||||               ]100% [||||||||||||||||||||||||||||||||||||||||||||||||||||||||||||]

Computing the temporal modes of the U field

Computing the Simulation temporal modes of the U field

-------------------------------------------------------------------------------------------
Computing the covariance matrix of resolved speed

Computing the covariance matrix of unresolved speed

Computing cov_s vector

Computing deriv_cov_s vector

interval_subsample = 1
l_nSnapshot = 31
time_interval_subsample = 1

Computing variance tensor a
######### Reading the Data for U #########
 50% [||||||||||||||||||||||||||||||                              ] 66% [||||||||||||||||||||||||||||||||||||||||                    ] 83% [||||||||||||||||||||||||||||||||||||||||||||||||||          ]100% [||||||||||||||||||||||||||||||||||||||||||||||||||||||||||||]
######### Reading the Data for U #########
100% [||||||||||||||||||||||||||||||||||||||||||||||||||||||||||||]
nSubsample=31
DEIM on fullStressFunction
TODO : create template_field_Smag in parameter
-------------------------------------------------------------------------------------------
The POD is performing with the following parameters :
Field : fullStressFunction
Number of modes : 4
POD Hilbert space : L2
Weight for the boundary conditions (0 for L2 POD Hilbert space) : 0
Patch for the boundary conditions(inlet by default) used in L2wBC : inlet
start time : 2
End time : 32
Number of snapshots : 31
Number of test snapshots : 31
Number of blocks : 2
Centered datas or not : 1 (1 centered, 0 not centered)
Name of eigensolver used : spectra
Results folder : ITHACAoutput
Computing the mean of fullStressFunction field
######### Exporting the Data for fullStressFunction #########
100% [||||||||||||||||||||||||||||||||||||||||||||||||||||||||||||]

Computing the covariance matrix of the fullStressFunction field
q = 15
r = 1
nSnapshot = 31
nBlocks = 2

######### Reading the Data for fullStressFunction #########
 17% [||||||||||                                                  ] 23% [||||||||||||||                                              ] 29% [|||||||||||||||||                                           ] 35% [|||||||||||||||||||||                                       ] 41% [||||||||||||||||||||||||                                    ] 47% [||||||||||||||||||||||||||||                                ] 52% [|||||||||||||||||||||||||||||||                             ] 58% [|||||||||||||||||||||||||||||||||||                         ] 64% [||||||||||||||||||||||||||||||||||||||                      ] 70% [||||||||||||||||||||||||||||||||||||||||||                  ] 76% [|||||||||||||||||||||||||||||||||||||||||||||               ] 82% [|||||||||||||||||||||||||||||||||||||||||||||||||           ] 88% [||||||||||||||||||||||||||||||||||||||||||||||||||||        ] 94% [||||||||||||||||||||||||||||||||||||||||||||||||||||||||    ]100% [||||||||||||||||||||||||||||||||||||||||||||||||||||||||||||]
Adding the triangular block [0:14]x[0:14] to the covariance matrix

######### Reading the Data for fullStressFunction #########
 56% [|||||||||||||||||||||||||||||||||                           ] 59% [|||||||||||||||||||||||||||||||||||                         ] 62% [|||||||||||||||||||||||||||||||||||||                       ] 65% [|||||||||||||||||||||||||||||||||||||||                     ] 68% [|||||||||||||||||||||||||||||||||||||||||                   ] 71% [|||||||||||||||||||||||||||||||||||||||||||                 ] 75% [|||||||||||||||||||||||||||||||||||||||||||||               ] 78% [||||||||||||||||||||||||||||||||||||||||||||||              ] 81% [||||||||||||||||||||||||||||||||||||||||||||||||            ] 84% [||||||||||||||||||||||||||||||||||||||||||||||||||          ] 87% [||||||||||||||||||||||||||||||||||||||||||||||||||||        ] 90% [||||||||||||||||||||||||||||||||||||||||||||||||||||||      ] 93% [||||||||||||||||||||||||||||||||||||||||||||||||||||||||    ] 96% [||||||||||||||||||||||||||||||||||||||||||||||||||||||||||  ]100% [||||||||||||||||||||||||||||||||||||||||||||||||||||||||||||]
Adding the triangular block [15:29]x[15:29] to the covariance matrix

######### Reading the Data for fullStressFunction #########
 17% [||||||||||                                                  ] 23% [||||||||||||||                                              ] 29% [|||||||||||||||||                                           ] 35% [|||||||||||||||||||||                                       ] 41% [||||||||||||||||||||||||                                    ] 47% [||||||||||||||||||||||||||||                                ] 52% [|||||||||||||||||||||||||||||||                             ] 58% [|||||||||||||||||||||||||||||||||||                         ] 64% [||||||||||||||||||||||||||||||||||||||                      ] 70% [||||||||||||||||||||||||||||||||||||||||||                  ] 76% [|||||||||||||||||||||||||||||||||||||||||||||               ] 82% [|||||||||||||||||||||||||||||||||||||||||||||||||           ] 88% [||||||||||||||||||||||||||||||||||||||||||||||||||||        ] 94% [||||||||||||||||||||||||||||||||||||||||||||||||||||||||    ]100% [||||||||||||||||||||||||||||||||||||||||||||||||||||||||||||]
Adding the square block [15:29]x[0:14] to the covariance matrix

######### Reading the Data for fullStressFunction #########
100% [||||||||||||||||||||||||||||||||||||||||||||||||||||||||||||]
Adding the triangular block [30:30]x[30:30] to the covariance matrix

######### Reading the Data for fullStressFunction #########
 17% [||||||||||                                                  ] 23% [||||||||||||||                                              ] 29% [|||||||||||||||||                                           ] 35% [|||||||||||||||||||||                                       ] 41% [||||||||||||||||||||||||                                    ] 47% [||||||||||||||||||||||||||||                                ] 52% [|||||||||||||||||||||||||||||||                             ] 58% [|||||||||||||||||||||||||||||||||||                         ] 64% [||||||||||||||||||||||||||||||||||||||                      ] 70% [||||||||||||||||||||||||||||||||||||||||||                  ] 76% [|||||||||||||||||||||||||||||||||||||||||||||               ] 82% [|||||||||||||||||||||||||||||||||||||||||||||||||           ] 88% [||||||||||||||||||||||||||||||||||||||||||||||||||||        ] 94% [||||||||||||||||||||||||||||||||||||||||||||||||||||||||    ]100% [||||||||||||||||||||||||||||||||||||||||||||||||||||||||||||]
Adding the square block [30:30]x[0:14] to the covariance matrix

######### Reading the Data for fullStressFunction #########
 56% [|||||||||||||||||||||||||||||||||                           ] 59% [|||||||||||||||||||||||||||||||||||                         ] 62% [|||||||||||||||||||||||||||||||||||||                       ] 65% [|||||||||||||||||||||||||||||||||||||||                     ] 68% [|||||||||||||||||||||||||||||||||||||||||                   ] 71% [|||||||||||||||||||||||||||||||||||||||||||                 ] 75% [|||||||||||||||||||||||||||||||||||||||||||||               ] 78% [||||||||||||||||||||||||||||||||||||||||||||||              ] 81% [||||||||||||||||||||||||||||||||||||||||||||||||            ] 84% [||||||||||||||||||||||||||||||||||||||||||||||||||          ] 87% [||||||||||||||||||||||||||||||||||||||||||||||||||||        ] 90% [||||||||||||||||||||||||||||||||||||||||||||||||||||||      ] 93% [||||||||||||||||||||||||||||||||||||||||||||||||||||||||    ] 96% [||||||||||||||||||||||||||||||||||||||||||||||||||||||||||  ]100% [||||||||||||||||||||||||||||||||||||||||||||||||||||||||||||]
Adding the square block [30:30]x[15:29] to the covariance matrix

Total varying L2 energy for fullStressFunction : 2.4463809e-07

Performing the eigen decomposition
Using Spectra EigenSolver 
% of varying L2 energy captures by the modes for fullStressFunction : 90.007051%

Computing the spatial modes of the fullStressFunction field
######### Exporting the Data for fullStressFunction #########
 25% [|||||||||||||||                                             ] 50% [||||||||||||||||||||||||||||||                              ] 75% [|||||||||||||||||||||||||||||||||||||||||||||               ]100% [||||||||||||||||||||||||||||||||||||||||||||||||||||||||||||]

Computing the temporal modes of the fullStressFunction field

Computing the Simulation temporal modes of the fullStressFunction field

-------------------------------------------------------------------------------------------
This is the new VERSION with ITHACA HyperReduction
Init HyperReduction class with vectorial dim: 3
Initial seeds length: 0
FolderMethod : ./ITHACAoutput/DEIM_centered/fullStressFunction/4magicPoints/
####### Begin Greedy-L2 GappyDEIM #######
####### Modes=4, nodePoints=4 #######
####### End of greedy GappyDEIM #######
S-Optimalty: 0.97522516
Inversion method : completeOrthogonalDecomposition
Projection Matrix shape: 34932 12
Basis Matrix shape: 34932 4
Pseudo Inverse Matrix shape: 4 12
Condition number of P^T U = 1.9764084
####### Extract submesh #######
####### End extract submesh size = 43 #######
####### End create masks #######
we consider varianceTensorParameters of velocity 
Computing variance tensor a
######### Reading the Data for fullStressFunction #########
 50% [||||||||||||||||||||||||||||||                              ] 66% [||||||||||||||||||||||||||||||||||||||||                    ] 83% [||||||||||||||||||||||||||||||||||||||||||||||||||          ]100% [||||||||||||||||||||||||||||||||||||||||||||||||||||||||||||]
######### Reading the Data for fullStressFunction #########
100% [||||||||||||||||||||||||||||||||||||||||||||||||||||||||||||]
nSubsample=31
Compute time average of ||grad(v')||² at magic points.
######### Exporting the Data for gradU #########
100% [||||||||||||||||||||||||||||||||||||||||||||||||||||||||||||]
######### Exporting the Data for gradU #########
 25% [|||||||||||||||                                             ] 50% [||||||||||||||||||||||||||||||                              ] 75% [|||||||||||||||||||||||||||||||||||||||||||||               ]100% [||||||||||||||||||||||||||||||||||||||||||||||||||||||||||||]
we consider varianceTensorParameters of velocity 
Computing variance tensor a
######### Reading the Data for gradU #########
 50% [||||||||||||||||||||||||||||||                              ] 66% [||||||||||||||||||||||||||||||||||||||||                    ] 83% [||||||||||||||||||||||||||||||||||||||||||||||||||          ]100% [||||||||||||||||||||||||||||||||||||||||||||||||||||||||||||]
######### Reading the Data for gradU #########
100% [||||||||||||||||||||||||||||||||||||||||||||||||||||||||||||]
nSubsample=31
-------------------------------------------------------------------------------------------
IthavaFV Neglected pressure Reducer

Mass matrix
 PseudoInverse Mass matrix
Condition number of M_matrix = 3.2380929
Adding the mean as a lifting function for the speed
5
Diffusion term

Advection term

Stochastic closure is considered.
Large-scale advection term
Turbulent diffusive term
Computing the S matrix (turbulent diffusivity term)

Exporting matrices into .txt files

Exporting S matrix


Mass Induce Terms
Mass matrix
 PseudoInverse Mass matrix
Condition number of M_matrix = 3.2380929
Diffusion term with PseudoInverse Mass matrix
Advection term with PseudoInverse Mass matrix
Large-scale advection term with PseudoInverse Mass matrix
Turbulent diffusive term with PseudoInverse Mass matrix
Noises term
Computing the N matrix (noises term)
we will considered Stochastic hyperreduction on fullStressFunction
K_(1,0) ( epsilon1_(1) ) computed
K_(2,0) ( epsilon1_(1) ) computed
K_(3,0) ( epsilon1_(1) ) computed
K_(4,0) ( epsilon1_(1) ) computed
K_(1,0) ( epsilon1_(2) ) computed
K_(2,0) ( epsilon1_(2) ) computed
K_(3,0) ( epsilon1_(2) ) computed
K_(4,0) ( epsilon1_(2) ) computed
K_(1,0) ( epsilon1_(3) ) computed
K_(2,0) ( epsilon1_(3) ) computed
K_(3,0) ( epsilon1_(3) ) computed
K_(4,0) ( epsilon1_(3) ) computed
K_(1,0) ( epsilon1_(4) ) computed
K_(2,0) ( epsilon1_(4) ) computed
K_(3,0) ( epsilon1_(4) ) computed
K_(4,0) ( epsilon1_(4) ) computed
K_(1,0) ( epsilon2_(1,1) ) computed
K_(2,0) ( epsilon2_(1,1) ) computed
K_(3,0) ( epsilon2_(1,1) ) computed
K_(4,0) ( epsilon2_(1,1) ) computed
K_(1,0) ( epsilon2_(1,2) ) computed
K_(2,0) ( epsilon2_(1,2) ) computed
K_(3,0) ( epsilon2_(1,2) ) computed
K_(4,0) ( epsilon2_(1,2) ) computed
K_(1,0) ( epsilon2_(1,3) ) computed
K_(2,0) ( epsilon2_(1,3) ) computed
K_(3,0) ( epsilon2_(1,3) ) computed
K_(4,0) ( epsilon2_(1,3) ) computed
K_(1,0) ( epsilon2_(1,4) ) computed
K_(2,0) ( epsilon2_(1,4) ) computed
K_(3,0) ( epsilon2_(1,4) ) computed
K_(4,0) ( epsilon2_(1,4) ) computed
K_(1,0) ( epsilon2_(2,1) ) computed
K_(2,0) ( epsilon2_(2,1) ) computed
K_(3,0) ( epsilon2_(2,1) ) computed
K_(4,0) ( epsilon2_(2,1) ) computed
K_(1,0) ( epsilon2_(2,2) ) computed
K_(2,0) ( epsilon2_(2,2) ) computed
K_(3,0) ( epsilon2_(2,2) ) computed
K_(4,0) ( epsilon2_(2,2) ) computed
K_(1,0) ( epsilon2_(2,3) ) computed
K_(2,0) ( epsilon2_(2,3) ) computed
K_(3,0) ( epsilon2_(2,3) ) computed
K_(4,0) ( epsilon2_(2,3) ) computed
K_(1,0) ( epsilon2_(2,4) ) computed
K_(2,0) ( epsilon2_(2,4) ) computed
K_(3,0) ( epsilon2_(2,4) ) computed
K_(4,0) ( epsilon2_(2,4) ) computed
K_(1,0) ( epsilon2_(3,1) ) computed
K_(2,0) ( epsilon2_(3,1) ) computed
K_(3,0) ( epsilon2_(3,1) ) computed
K_(4,0) ( epsilon2_(3,1) ) computed
K_(1,0) ( epsilon2_(3,2) ) computed
K_(2,0) ( epsilon2_(3,2) ) computed
K_(3,0) ( epsilon2_(3,2) ) computed
K_(4,0) ( epsilon2_(3,2) ) computed
K_(1,0) ( epsilon2_(3,3) ) computed
K_(2,0) ( epsilon2_(3,3) ) computed
K_(3,0) ( epsilon2_(3,3) ) computed
K_(4,0) ( epsilon2_(3,3) ) computed
K_(1,0) ( epsilon2_(3,4) ) computed
K_(2,0) ( epsilon2_(3,4) ) computed
K_(3,0) ( epsilon2_(3,4) ) computed
K_(4,0) ( epsilon2_(3,4) ) computed
K_(1,0) ( epsilon2_(4,1) ) computed
K_(2,0) ( epsilon2_(4,1) ) computed
K_(3,0) ( epsilon2_(4,1) ) computed
K_(4,0) ( epsilon2_(4,1) ) computed
K_(1,0) ( epsilon2_(4,2) ) computed
K_(2,0) ( epsilon2_(4,2) ) computed
K_(3,0) ( epsilon2_(4,2) ) computed
K_(4,0) ( epsilon2_(4,2) ) computed
K_(1,0) ( epsilon2_(4,3) ) computed
K_(2,0) ( epsilon2_(4,3) ) computed
K_(3,0) ( epsilon2_(4,3) ) computed
K_(4,0) ( epsilon2_(4,3) ) computed
K_(1,0) ( epsilon2_(4,4) ) computed
K_(2,0) ( epsilon2_(4,4) ) computed
K_(3,0) ( epsilon2_(4,4) ) computed
K_(4,0) ( epsilon2_(4,4) ) computed
K_(1,1) ( epsilon2_(1,1) ) computed
K_(2,1) ( epsilon2_(1,1) ) computed
K_(3,1) ( epsilon2_(1,1) ) computed
K_(4,1) ( epsilon2_(1,1) ) computed
K_(1,2) ( epsilon2_(1,1) ) computed
K_(2,2) ( epsilon2_(1,1) ) computed
K_(3,2) ( epsilon2_(1,1) ) computed
K_(4,2) ( epsilon2_(1,1) ) computed
K_(1,3) ( epsilon2_(1,1) ) computed
K_(2,3) ( epsilon2_(1,1) ) computed
K_(3,3) ( epsilon2_(1,1) ) computed
K_(4,3) ( epsilon2_(1,1) ) computed
K_(1,4) ( epsilon2_(1,1) ) computed
K_(2,4) ( epsilon2_(1,1) ) computed
K_(3,4) ( epsilon2_(1,1) ) computed
K_(4,4) ( epsilon2_(1,1) ) computed
K_(1,1) ( epsilon2_(1,2) ) computed
K_(2,1) ( epsilon2_(1,2) ) computed
K_(3,1) ( epsilon2_(1,2) ) computed
K_(4,1) ( epsilon2_(1,2) ) computed
K_(1,2) ( epsilon2_(1,2) ) computed
K_(2,2) ( epsilon2_(1,2) ) computed
K_(3,2) ( epsilon2_(1,2) ) computed
K_(4,2) ( epsilon2_(1,2) ) computed
K_(1,3) ( epsilon2_(1,2) ) computed
K_(2,3) ( epsilon2_(1,2) ) computed
K_(3,3) ( epsilon2_(1,2) ) computed
K_(4,3) ( epsilon2_(1,2) ) computed
K_(1,4) ( epsilon2_(1,2) ) computed
K_(2,4) ( epsilon2_(1,2) ) computed
K_(3,4) ( epsilon2_(1,2) ) computed
K_(4,4) ( epsilon2_(1,2) ) computed
K_(1,1) ( epsilon2_(1,3) ) computed
K_(2,1) ( epsilon2_(1,3) ) computed
K_(3,1) ( epsilon2_(1,3) ) computed
K_(4,1) ( epsilon2_(1,3) ) computed
K_(1,2) ( epsilon2_(1,3) ) computed
K_(2,2) ( epsilon2_(1,3) ) computed
K_(3,2) ( epsilon2_(1,3) ) computed
K_(4,2) ( epsilon2_(1,3) ) computed
K_(1,3) ( epsilon2_(1,3) ) computed
K_(2,3) ( epsilon2_(1,3) ) computed
K_(3,3) ( epsilon2_(1,3) ) computed
K_(4,3) ( epsilon2_(1,3) ) computed
K_(1,4) ( epsilon2_(1,3) ) computed
K_(2,4) ( epsilon2_(1,3) ) computed
K_(3,4) ( epsilon2_(1,3) ) computed
K_(4,4) ( epsilon2_(1,3) ) computed
K_(1,1) ( epsilon2_(1,4) ) computed
K_(2,1) ( epsilon2_(1,4) ) computed
K_(3,1) ( epsilon2_(1,4) ) computed
K_(4,1) ( epsilon2_(1,4) ) computed
K_(1,2) ( epsilon2_(1,4) ) computed
K_(2,2) ( epsilon2_(1,4) ) computed
K_(3,2) ( epsilon2_(1,4) ) computed
K_(4,2) ( epsilon2_(1,4) ) computed
K_(1,3) ( epsilon2_(1,4) ) computed
K_(2,3) ( epsilon2_(1,4) ) computed
K_(3,3) ( epsilon2_(1,4) ) computed
K_(4,3) ( epsilon2_(1,4) ) computed
K_(1,4) ( epsilon2_(1,4) ) computed
K_(2,4) ( epsilon2_(1,4) ) computed
K_(3,4) ( epsilon2_(1,4) ) computed
K_(4,4) ( epsilon2_(1,4) ) computed
K_(1,1) ( epsilon2_(2,1) ) computed
K_(2,1) ( epsilon2_(2,1) ) computed
K_(3,1) ( epsilon2_(2,1) ) computed
K_(4,1) ( epsilon2_(2,1) ) computed
K_(1,2) ( epsilon2_(2,1) ) computed
K_(2,2) ( epsilon2_(2,1) ) computed
K_(3,2) ( epsilon2_(2,1) ) computed
K_(4,2) ( epsilon2_(2,1) ) computed
K_(1,3) ( epsilon2_(2,1) ) computed
K_(2,3) ( epsilon2_(2,1) ) computed
K_(3,3) ( epsilon2_(2,1) ) computed
K_(4,3) ( epsilon2_(2,1) ) computed
K_(1,4) ( epsilon2_(2,1) ) computed
K_(2,4) ( epsilon2_(2,1) ) computed
K_(3,4) ( epsilon2_(2,1) ) computed
K_(4,4) ( epsilon2_(2,1) ) computed
K_(1,1) ( epsilon2_(2,2) ) computed
K_(2,1) ( epsilon2_(2,2) ) computed
K_(3,1) ( epsilon2_(2,2) ) computed
K_(4,1) ( epsilon2_(2,2) ) computed
K_(1,2) ( epsilon2_(2,2) ) computed
K_(2,2) ( epsilon2_(2,2) ) computed
K_(3,2) ( epsilon2_(2,2) ) computed
K_(4,2) ( epsilon2_(2,2) ) computed
K_(1,3) ( epsilon2_(2,2) ) computed
K_(2,3) ( epsilon2_(2,2) ) computed
K_(3,3) ( epsilon2_(2,2) ) computed
K_(4,3) ( epsilon2_(2,2) ) computed
K_(1,4) ( epsilon2_(2,2) ) computed
K_(2,4) ( epsilon2_(2,2) ) computed
K_(3,4) ( epsilon2_(2,2) ) computed
K_(4,4) ( epsilon2_(2,2) ) computed
K_(1,1) ( epsilon2_(2,3) ) computed
K_(2,1) ( epsilon2_(2,3) ) computed
K_(3,1) ( epsilon2_(2,3) ) computed
K_(4,1) ( epsilon2_(2,3) ) computed
K_(1,2) ( epsilon2_(2,3) ) computed
K_(2,2) ( epsilon2_(2,3) ) computed
K_(3,2) ( epsilon2_(2,3) ) computed
K_(4,2) ( epsilon2_(2,3) ) computed
K_(1,3) ( epsilon2_(2,3) ) computed
K_(2,3) ( epsilon2_(2,3) ) computed
K_(3,3) ( epsilon2_(2,3) ) computed
K_(4,3) ( epsilon2_(2,3) ) computed
K_(1,4) ( epsilon2_(2,3) ) computed
K_(2,4) ( epsilon2_(2,3) ) computed
K_(3,4) ( epsilon2_(2,3) ) computed
K_(4,4) ( epsilon2_(2,3) ) computed
K_(1,1) ( epsilon2_(2,4) ) computed
K_(2,1) ( epsilon2_(2,4) ) computed
K_(3,1) ( epsilon2_(2,4) ) computed
K_(4,1) ( epsilon2_(2,4) ) computed
K_(1,2) ( epsilon2_(2,4) ) computed
K_(2,2) ( epsilon2_(2,4) ) computed
K_(3,2) ( epsilon2_(2,4) ) computed
K_(4,2) ( epsilon2_(2,4) ) computed
K_(1,3) ( epsilon2_(2,4) ) computed
K_(2,3) ( epsilon2_(2,4) ) computed
K_(3,3) ( epsilon2_(2,4) ) computed
K_(4,3) ( epsilon2_(2,4) ) computed
K_(1,4) ( epsilon2_(2,4) ) computed
K_(2,4) ( epsilon2_(2,4) ) computed
K_(3,4) ( epsilon2_(2,4) ) computed
K_(4,4) ( epsilon2_(2,4) ) computed
K_(1,1) ( epsilon2_(3,1) ) computed
K_(2,1) ( epsilon2_(3,1) ) computed
K_(3,1) ( epsilon2_(3,1) ) computed
K_(4,1) ( epsilon2_(3,1) ) computed
K_(1,2) ( epsilon2_(3,1) ) computed
K_(2,2) ( epsilon2_(3,1) ) computed
K_(3,2) ( epsilon2_(3,1) ) computed
K_(4,2) ( epsilon2_(3,1) ) computed
K_(1,3) ( epsilon2_(3,1) ) computed
K_(2,3) ( epsilon2_(3,1) ) computed
K_(3,3) ( epsilon2_(3,1) ) computed
K_(4,3) ( epsilon2_(3,1) ) computed
K_(1,4) ( epsilon2_(3,1) ) computed
K_(2,4) ( epsilon2_(3,1) ) computed
K_(3,4) ( epsilon2_(3,1) ) computed
K_(4,4) ( epsilon2_(3,1) ) computed
K_(1,1) ( epsilon2_(3,2) ) computed
K_(2,1) ( epsilon2_(3,2) ) computed
K_(3,1) ( epsilon2_(3,2) ) computed
K_(4,1) ( epsilon2_(3,2) ) computed
K_(1,2) ( epsilon2_(3,2) ) computed
K_(2,2) ( epsilon2_(3,2) ) computed
K_(3,2) ( epsilon2_(3,2) ) computed
K_(4,2) ( epsilon2_(3,2) ) computed
K_(1,3) ( epsilon2_(3,2) ) computed
K_(2,3) ( epsilon2_(3,2) ) computed
K_(3,3) ( epsilon2_(3,2) ) computed
K_(4,3) ( epsilon2_(3,2) ) computed
K_(1,4) ( epsilon2_(3,2) ) computed
K_(2,4) ( epsilon2_(3,2) ) computed
K_(3,4) ( epsilon2_(3,2) ) computed
K_(4,4) ( epsilon2_(3,2) ) computed
K_(1,1) ( epsilon2_(3,3) ) computed
K_(2,1) ( epsilon2_(3,3) ) computed
K_(3,1) ( epsilon2_(3,3) ) computed
K_(4,1) ( epsilon2_(3,3) ) computed
K_(1,2) ( epsilon2_(3,3) ) computed
K_(2,2) ( epsilon2_(3,3) ) computed
K_(3,2) ( epsilon2_(3,3) ) computed
K_(4,2) ( epsilon2_(3,3) ) computed
K_(1,3) ( epsilon2_(3,3) ) computed
K_(2,3) ( epsilon2_(3,3) ) computed
K_(3,3) ( epsilon2_(3,3) ) computed
K_(4,3) ( epsilon2_(3,3) ) computed
K_(1,4) ( epsilon2_(3,3) ) computed
K_(2,4) ( epsilon2_(3,3) ) computed
K_(3,4) ( epsilon2_(3,3) ) computed
K_(4,4) ( epsilon2_(3,3) ) computed
K_(1,1) ( epsilon2_(3,4) ) computed
K_(2,1) ( epsilon2_(3,4) ) computed
K_(3,1) ( epsilon2_(3,4) ) computed
K_(4,1) ( epsilon2_(3,4) ) computed
K_(1,2) ( epsilon2_(3,4) ) computed
K_(2,2) ( epsilon2_(3,4) ) computed
K_(3,2) ( epsilon2_(3,4) ) computed
K_(4,2) ( epsilon2_(3,4) ) computed
K_(1,3) ( epsilon2_(3,4) ) computed
K_(2,3) ( epsilon2_(3,4) ) computed
K_(3,3) ( epsilon2_(3,4) ) computed
K_(4,3) ( epsilon2_(3,4) ) computed
K_(1,4) ( epsilon2_(3,4) ) computed
K_(2,4) ( epsilon2_(3,4) ) computed
K_(3,4) ( epsilon2_(3,4) ) computed
K_(4,4) ( epsilon2_(3,4) ) computed
K_(1,1) ( epsilon2_(4,1) ) computed
K_(2,1) ( epsilon2_(4,1) ) computed
K_(3,1) ( epsilon2_(4,1) ) computed
K_(4,1) ( epsilon2_(4,1) ) computed
K_(1,2) ( epsilon2_(4,1) ) computed
K_(2,2) ( epsilon2_(4,1) ) computed
K_(3,2) ( epsilon2_(4,1) ) computed
K_(4,2) ( epsilon2_(4,1) ) computed
K_(1,3) ( epsilon2_(4,1) ) computed
K_(2,3) ( epsilon2_(4,1) ) computed
K_(3,3) ( epsilon2_(4,1) ) computed
K_(4,3) ( epsilon2_(4,1) ) computed
K_(1,4) ( epsilon2_(4,1) ) computed
K_(2,4) ( epsilon2_(4,1) ) computed
K_(3,4) ( epsilon2_(4,1) ) computed
K_(4,4) ( epsilon2_(4,1) ) computed
K_(1,1) ( epsilon2_(4,2) ) computed
K_(2,1) ( epsilon2_(4,2) ) computed
K_(3,1) ( epsilon2_(4,2) ) computed
K_(4,1) ( epsilon2_(4,2) ) computed
K_(1,2) ( epsilon2_(4,2) ) computed
K_(2,2) ( epsilon2_(4,2) ) computed
K_(3,2) ( epsilon2_(4,2) ) computed
K_(4,2) ( epsilon2_(4,2) ) computed
K_(1,3) ( epsilon2_(4,2) ) computed
K_(2,3) ( epsilon2_(4,2) ) computed
K_(3,3) ( epsilon2_(4,2) ) computed
K_(4,3) ( epsilon2_(4,2) ) computed
K_(1,4) ( epsilon2_(4,2) ) computed
K_(2,4) ( epsilon2_(4,2) ) computed
K_(3,4) ( epsilon2_(4,2) ) computed
K_(4,4) ( epsilon2_(4,2) ) computed
K_(1,1) ( epsilon2_(4,3) ) computed
K_(2,1) ( epsilon2_(4,3) ) computed
K_(3,1) ( epsilon2_(4,3) ) computed
K_(4,1) ( epsilon2_(4,3) ) computed
K_(1,2) ( epsilon2_(4,3) ) computed
K_(2,2) ( epsilon2_(4,3) ) computed
K_(3,2) ( epsilon2_(4,3) ) computed
K_(4,2) ( epsilon2_(4,3) ) computed
K_(1,3) ( epsilon2_(4,3) ) computed
K_(2,3) ( epsilon2_(4,3) ) computed
K_(3,3) ( epsilon2_(4,3) ) computed
K_(4,3) ( epsilon2_(4,3) ) computed
K_(1,4) ( epsilon2_(4,3) ) computed
K_(2,4) ( epsilon2_(4,3) ) computed
K_(3,4) ( epsilon2_(4,3) ) computed
K_(4,4) ( epsilon2_(4,3) ) computed
K_(1,1) ( epsilon2_(4,4) ) computed
K_(2,1) ( epsilon2_(4,4) ) computed
K_(3,1) ( epsilon2_(4,4) ) computed
K_(4,1) ( epsilon2_(4,4) ) computed
K_(1,2) ( epsilon2_(4,4) ) computed
K_(2,2) ( epsilon2_(4,4) ) computed
K_(3,2) ( epsilon2_(4,4) ) computed
K_(4,2) ( epsilon2_(4,4) ) computed
K_(1,3) ( epsilon2_(4,4) ) computed
K_(2,3) ( epsilon2_(4,4) ) computed
K_(3,3) ( epsilon2_(4,4) ) computed
K_(4,3) ( epsilon2_(4,4) ) computed
K_(1,4) ( epsilon2_(4,4) ) computed
K_(2,4) ( epsilon2_(4,4) ) computed
K_(3,4) ( epsilon2_(4,4) ) computed
K_(4,4) ( epsilon2_(4,4) ) computed
Using Eigen EigenSolver 
Exporting matrices into .txt files
Exporting N matrix
Reducing Noises term
0.84373114
Exporting matrices into .txt files
Exporting N matrix

Reducing Noises term with PseudoInverse Mass matrix

-------------------------------------------------------------------------------------------
IthacaFV Resolver Neglected pressure
2 realizations of the resolution have been launched


 --- Resolution without Assimilation ---

 --- Resolution without saving Brownians ---

     NOTE : run takes 9e-06 seconds before resolution (getting parameters)


     NOTE : run takes 0.099501 seconds for resolution

Cf. [python files] in ./ITHACAoutput/Reduced_coeff_4_DEIMcStoInflat_fullStressFunction_m4_0.01_2_neglectedPressure_H1_centered_Ito/ :
   from approx_temporalModes_U_0.npy to approx_temporalModes_U_1.npy
-------------------------------------------------------------------------------------------
IthacaFV Synthetizer Mean
-------------------------------------------------------------------------------------------
IthacaFV Synthetizer Error
---------------------------------------END------------------------------------------------
RedLUM simulate (ver:9a6ca9b0) END
