0.13486680156508493167 -0.059399922230707120907 0.00084633046896565044832 -0.022516742913711276092
0.027460286263282052827 -0.095631053188781262042 0.0008974976266305279872 -0.0051028771183599733186
0.0013086063062773050855 0.010368209721789893238 -0.0006940423254756774088 -0.0005984169288654053254
0.0093061891353282012035 -0.00071293924221636024909 -0.0033570060017254045939 -0.018155381361209040059