0.0080005748204925956207 0.11494346813610925584 0.023792953340582095878 -0.00031905352095455599259
0.12517685121918023516 -0.030855374066964810081 0.0059522312820723807456 0.001826870298713836405
0.00066978979573632563445 -0.0018201484914079091044 0.0001389746401135740861 0.00043229212045688234379
-0.0015524309536771388213 0.0041968523061197051532 0.016773846363093956185 -0.002676379273529661592