/*---------------------------------------------------------------------------*\
| =========                 |                                                 |
| \\      /  F ield         | OpenFOAM: The Open Source CFD Toolbox           |
|  \\    /   O peration     | Version:  2212                                  |
|   \\  /    A nd           | Website:  www.openfoam.com                      |
|    \\/     M anipulation  |                                                 |
\*---------------------------------------------------------------------------*/
Build  : _70874860-20230612 OPENFOAM=2212 patch=230612 version=2212
Arch   : "LSB;label=32;scalar=64"
Exec   : redlum-fullOrderPressure
Date   : Feb 19 2025
Time   : 17:51:20
Host   : REN-1466-1-P568
PID    : 25970
I/O    : uncollated
Case   : /media/vresseguier/55222cef-2cd1-457f-83ca-21f4b445bbbb/red_lum_data/RedLUM/data_red_lum_cpp/DNSRe100/ROM_ref/Full/Hyp_1_Sto_1_adv_1_Int_1_DEIMInt_fullStressFunction_inf_1_pod_H1
nProcs : 1
trapFpe: Floating point exception trapping enabled (FOAM_SIGFPE).
fileModificationChecking : Monitoring run-time modified files using timeStampMaster (fileModificationSkew 5, maxFileModificationPolls 20)
allowSystemOperations : Allowing user-supplied system call operations

// * * * * * * * * * * * * * * * * * * * * * * * * * * * * * * * * * * * * * //
argv[0] = redlum-fullOrderPressure
---------------------------------------------------------
Simulation type:"laminar"
DNS simulation will be performed
---------------------------------------------------------
RedLUM simulate (ver:9a6ca9b0) START
Ithaca-FV POD decompose U field
-------------------------------------------------------------------------------------------
The POD is performing with the following parameters :
Field : U
Number of modes : 4
POD Hilbert space : H1
Weight for the boundary conditions (0 for L2 POD Hilbert space) : 0
Patch for the boundary conditions(inlet by default) used in L2wBC : inlet
start time : 2
End time : 32
Number of snapshots : 31
Number of test snapshots : 31
Number of blocks : 2
Centered datas or not : 1 (1 centered, 0 not centered)
Name of eigensolver used : spectra
Results folder : ITHACAoutput
Computing the mean of U field
######### Exporting the Data for U #########
100% [||||||||||||||||||||||||||||||||||||||||||||||||||||||||||||]

Computing the covariance matrix of the U field
q = 15
r = 1
nSnapshot = 31
nBlocks = 2

######### Reading the Data for U #########
 17% [||||||||||                                                  ] 23% [||||||||||||||                                              ] 29% [|||||||||||||||||                                           ] 35% [|||||||||||||||||||||                                       ] 41% [||||||||||||||||||||||||                                    ] 47% [||||||||||||||||||||||||||||                                ] 52% [|||||||||||||||||||||||||||||||                             ] 58% [|||||||||||||||||||||||||||||||||||                         ] 64% [||||||||||||||||||||||||||||||||||||||                      ] 70% [||||||||||||||||||||||||||||||||||||||||||                  ] 76% [|||||||||||||||||||||||||||||||||||||||||||||               ] 82% [|||||||||||||||||||||||||||||||||||||||||||||||||           ] 88% [||||||||||||||||||||||||||||||||||||||||||||||||||||        ] 94% [||||||||||||||||||||||||||||||||||||||||||||||||||||||||    ]100% [||||||||||||||||||||||||||||||||||||||||||||||||||||||||||||]
Adding the triangular block [0:14]x[0:14] to the covariance matrix

######### Reading the Data for U #########
 56% [|||||||||||||||||||||||||||||||||                           ] 59% [|||||||||||||||||||||||||||||||||||                         ] 62% [|||||||||||||||||||||||||||||||||||||                       ] 65% [|||||||||||||||||||||||||||||||||||||||                     ] 68% [|||||||||||||||||||||||||||||||||||||||||                   ] 71% [|||||||||||||||||||||||||||||||||||||||||||                 ] 75% [|||||||||||||||||||||||||||||||||||||||||||||               ] 78% [||||||||||||||||||||||||||||||||||||||||||||||              ] 81% [||||||||||||||||||||||||||||||||||||||||||||||||            ] 84% [||||||||||||||||||||||||||||||||||||||||||||||||||          ] 87% [||||||||||||||||||||||||||||||||||||||||||||||||||||        ] 90% [||||||||||||||||||||||||||||||||||||||||||||||||||||||      ] 93% [||||||||||||||||||||||||||||||||||||||||||||||||||||||||    ] 96% [||||||||||||||||||||||||||||||||||||||||||||||||||||||||||  ]100% [||||||||||||||||||||||||||||||||||||||||||||||||||||||||||||]
Adding the triangular block [15:29]x[15:29] to the covariance matrix

######### Reading the Data for U #########
 17% [||||||||||                                                  ] 23% [||||||||||||||                                              ] 29% [|||||||||||||||||                                           ] 35% [|||||||||||||||||||||                                       ] 41% [||||||||||||||||||||||||                                    ] 47% [||||||||||||||||||||||||||||                                ] 52% [|||||||||||||||||||||||||||||||                             ] 58% [|||||||||||||||||||||||||||||||||||                         ] 64% [||||||||||||||||||||||||||||||||||||||                      ] 70% [||||||||||||||||||||||||||||||||||||||||||                  ] 76% [|||||||||||||||||||||||||||||||||||||||||||||               ] 82% [|||||||||||||||||||||||||||||||||||||||||||||||||           ] 88% [||||||||||||||||||||||||||||||||||||||||||||||||||||        ] 94% [||||||||||||||||||||||||||||||||||||||||||||||||||||||||    ]100% [||||||||||||||||||||||||||||||||||||||||||||||||||||||||||||]
Adding the square block [15:29]x[0:14] to the covariance matrix

######### Reading the Data for U #########
100% [||||||||||||||||||||||||||||||||||||||||||||||||||||||||||||]
Adding the triangular block [30:30]x[30:30] to the covariance matrix

######### Reading the Data for U #########
 17% [||||||||||                                                  ] 23% [||||||||||||||                                              ] 29% [|||||||||||||||||                                           ] 35% [|||||||||||||||||||||                                       ] 41% [||||||||||||||||||||||||                                    ] 47% [||||||||||||||||||||||||||||                                ] 52% [|||||||||||||||||||||||||||||||                             ] 58% [|||||||||||||||||||||||||||||||||||                         ] 64% [||||||||||||||||||||||||||||||||||||||                      ] 70% [||||||||||||||||||||||||||||||||||||||||||                  ] 76% [|||||||||||||||||||||||||||||||||||||||||||||               ] 82% [|||||||||||||||||||||||||||||||||||||||||||||||||           ] 88% [||||||||||||||||||||||||||||||||||||||||||||||||||||        ] 94% [||||||||||||||||||||||||||||||||||||||||||||||||||||||||    ]100% [||||||||||||||||||||||||||||||||||||||||||||||||||||||||||||]
Adding the square block [30:30]x[0:14] to the covariance matrix

######### Reading the Data for U #########
 56% [|||||||||||||||||||||||||||||||||                           ] 59% [|||||||||||||||||||||||||||||||||||                         ] 62% [|||||||||||||||||||||||||||||||||||||                       ] 65% [|||||||||||||||||||||||||||||||||||||||                     ] 68% [|||||||||||||||||||||||||||||||||||||||||                   ] 71% [|||||||||||||||||||||||||||||||||||||||||||                 ] 75% [|||||||||||||||||||||||||||||||||||||||||||||               ] 78% [||||||||||||||||||||||||||||||||||||||||||||||              ] 81% [||||||||||||||||||||||||||||||||||||||||||||||||            ] 84% [||||||||||||||||||||||||||||||||||||||||||||||||||          ] 87% [||||||||||||||||||||||||||||||||||||||||||||||||||||        ] 90% [||||||||||||||||||||||||||||||||||||||||||||||||||||||      ] 93% [||||||||||||||||||||||||||||||||||||||||||||||||||||||||    ] 96% [||||||||||||||||||||||||||||||||||||||||||||||||||||||||||  ]100% [||||||||||||||||||||||||||||||||||||||||||||||||||||||||||||]
Adding the square block [30:30]x[15:29] to the covariance matrix

Total varying L2 energy for U : 0.188171

Computing the mean of gradU field
######### Exporting the Data for gradU #########
100% [||||||||||||||||||||||||||||||||||||||||||||||||||||||||||||]

Computing the covariance matrix of the gradU field
q = 15
r = 1
nSnapshot = 31
nBlocks = 2

######### Reading the Data for gradU #########
 17% [||||||||||                                                  ] 23% [||||||||||||||                                              ] 29% [|||||||||||||||||                                           ] 35% [|||||||||||||||||||||                                       ] 41% [||||||||||||||||||||||||                                    ] 47% [||||||||||||||||||||||||||||                                ] 52% [|||||||||||||||||||||||||||||||                             ] 58% [|||||||||||||||||||||||||||||||||||                         ] 64% [||||||||||||||||||||||||||||||||||||||                      ] 70% [||||||||||||||||||||||||||||||||||||||||||                  ] 76% [|||||||||||||||||||||||||||||||||||||||||||||               ] 82% [|||||||||||||||||||||||||||||||||||||||||||||||||           ] 88% [||||||||||||||||||||||||||||||||||||||||||||||||||||        ] 94% [||||||||||||||||||||||||||||||||||||||||||||||||||||||||    ]100% [||||||||||||||||||||||||||||||||||||||||||||||||||||||||||||]
Adding the triangular block [0:14]x[0:14] to the covariance matrix

######### Reading the Data for gradU #########
 56% [|||||||||||||||||||||||||||||||||                           ] 59% [|||||||||||||||||||||||||||||||||||                         ] 62% [|||||||||||||||||||||||||||||||||||||                       ] 65% [|||||||||||||||||||||||||||||||||||||||                     ] 68% [|||||||||||||||||||||||||||||||||||||||||                   ] 71% [|||||||||||||||||||||||||||||||||||||||||||                 ] 75% [|||||||||||||||||||||||||||||||||||||||||||||               ] 78% [||||||||||||||||||||||||||||||||||||||||||||||              ] 81% [||||||||||||||||||||||||||||||||||||||||||||||||            ] 84% [||||||||||||||||||||||||||||||||||||||||||||||||||          ] 87% [||||||||||||||||||||||||||||||||||||||||||||||||||||        ] 90% [||||||||||||||||||||||||||||||||||||||||||||||||||||||      ] 93% [||||||||||||||||||||||||||||||||||||||||||||||||||||||||    ] 96% [||||||||||||||||||||||||||||||||||||||||||||||||||||||||||  ]100% [||||||||||||||||||||||||||||||||||||||||||||||||||||||||||||]
Adding the triangular block [15:29]x[15:29] to the covariance matrix

######### Reading the Data for gradU #########
 17% [||||||||||                                                  ] 23% [||||||||||||||                                              ] 29% [|||||||||||||||||                                           ] 35% [|||||||||||||||||||||                                       ] 41% [||||||||||||||||||||||||                                    ] 47% [||||||||||||||||||||||||||||                                ] 52% [|||||||||||||||||||||||||||||||                             ] 58% [|||||||||||||||||||||||||||||||||||                         ] 64% [||||||||||||||||||||||||||||||||||||||                      ] 70% [||||||||||||||||||||||||||||||||||||||||||                  ] 76% [|||||||||||||||||||||||||||||||||||||||||||||               ] 82% [|||||||||||||||||||||||||||||||||||||||||||||||||           ] 88% [||||||||||||||||||||||||||||||||||||||||||||||||||||        ] 94% [||||||||||||||||||||||||||||||||||||||||||||||||||||||||    ]100% [||||||||||||||||||||||||||||||||||||||||||||||||||||||||||||]
Adding the square block [15:29]x[0:14] to the covariance matrix

######### Reading the Data for gradU #########
100% [||||||||||||||||||||||||||||||||||||||||||||||||||||||||||||]
Adding the triangular block [30:30]x[30:30] to the covariance matrix

######### Reading the Data for gradU #########
 17% [||||||||||                                                  ] 23% [||||||||||||||                                              ] 29% [|||||||||||||||||                                           ] 35% [|||||||||||||||||||||                                       ] 41% [||||||||||||||||||||||||                                    ] 47% [||||||||||||||||||||||||||||                                ] 52% [|||||||||||||||||||||||||||||||                             ] 58% [|||||||||||||||||||||||||||||||||||                         ] 64% [||||||||||||||||||||||||||||||||||||||                      ] 70% [||||||||||||||||||||||||||||||||||||||||||                  ] 76% [|||||||||||||||||||||||||||||||||||||||||||||               ] 82% [|||||||||||||||||||||||||||||||||||||||||||||||||           ] 88% [||||||||||||||||||||||||||||||||||||||||||||||||||||        ] 94% [||||||||||||||||||||||||||||||||||||||||||||||||||||||||    ]100% [||||||||||||||||||||||||||||||||||||||||||||||||||||||||||||]
Adding the square block [30:30]x[0:14] to the covariance matrix

######### Reading the Data for gradU #########
 56% [|||||||||||||||||||||||||||||||||                           ] 59% [|||||||||||||||||||||||||||||||||||                         ] 62% [|||||||||||||||||||||||||||||||||||||                       ] 65% [|||||||||||||||||||||||||||||||||||||||                     ] 68% [|||||||||||||||||||||||||||||||||||||||||                   ] 71% [|||||||||||||||||||||||||||||||||||||||||||                 ] 75% [|||||||||||||||||||||||||||||||||||||||||||||               ] 78% [||||||||||||||||||||||||||||||||||||||||||||||              ] 81% [||||||||||||||||||||||||||||||||||||||||||||||||            ] 84% [||||||||||||||||||||||||||||||||||||||||||||||||||          ] 87% [||||||||||||||||||||||||||||||||||||||||||||||||||||        ] 90% [||||||||||||||||||||||||||||||||||||||||||||||||||||||      ] 93% [||||||||||||||||||||||||||||||||||||||||||||||||||||||||    ] 96% [||||||||||||||||||||||||||||||||||||||||||||||||||||||||||  ]100% [||||||||||||||||||||||||||||||||||||||||||||||||||||||||||||]
Adding the square block [30:30]x[15:29] to the covariance matrix

Total varying L2 energy for gradU : 0.449618

Total varying energy H1 : 0.637789

Performing the eigen decomposition
Using Spectra EigenSolver 
% of varying H1 energy captures by the modes for U : 98.7381%

Computing the spatial modes of the U field
######### Exporting the Data for U #########
 25% [|||||||||||||||                                             ] 50% [||||||||||||||||||||||||||||||                              ] 75% [|||||||||||||||||||||||||||||||||||||||||||||               ]100% [||||||||||||||||||||||||||||||||||||||||||||||||||||||||||||]

Computing the temporal modes of the U field

Computing the Simulation temporal modes of the U field

-------------------------------------------------------------------------------------------
Computing the covariance matrix of resolved speed

Computing the covariance matrix of unresolved speed

Computing cov_s vector

Computing deriv_cov_s vector

interval_subsample = 1
l_nSnapshot = 31
time_interval_subsample = 1

Computing variance tensor a
######### Reading the Data for U #########
 50% [||||||||||||||||||||||||||||||                              ] 66% [||||||||||||||||||||||||||||||||||||||||                    ] 83% [||||||||||||||||||||||||||||||||||||||||||||||||||          ]100% [||||||||||||||||||||||||||||||||||||||||||||||||||||||||||||]
######### Reading the Data for U #########
100% [||||||||||||||||||||||||||||||||||||||||||||||||||||||||||||]
nSubsample=31
-------------------------------------------------------------------------------------------
IthavaFV Full-order pressure Reducer

Adding the mean as a lifting function for the speed
5
Diffusion term

Advection term

Performing projection onto the space of divergence-free functions
GAMG:  Solving for p, Initial residual = 1, Final residual = 0.00574268, No Iterations 7
C_matrix(1,1,1) computed

Performing projection onto the space of divergence-free functions
GAMG:  Solving for p, Initial residual = 1, Final residual = 0.00971437, No Iterations 4
C_matrix(1,1,2) computed

Performing projection onto the space of divergence-free functions
GAMG:  Solving for p, Initial residual = 1, Final residual = 0.00791554, No Iterations 6
C_matrix(1,1,3) computed

Performing projection onto the space of divergence-free functions
GAMG:  Solving for p, Initial residual = 1, Final residual = 0.00690416, No Iterations 5
C_matrix(1,1,4) computed

Performing projection onto the space of divergence-free functions
GAMG:  Solving for p, Initial residual = 1, Final residual = 0.00987849, No Iterations 6
C_matrix(1,1,5) computed

Performing projection onto the space of divergence-free functions
GAMG:  Solving for p, Initial residual = 1, Final residual = 0.00969602, No Iterations 4
C_matrix(1,2,1) computed

Performing projection onto the space of divergence-free functions
GAMG:  Solving for p, Initial residual = 1, Final residual = 0.00640895, No Iterations 7
C_matrix(1,2,2) computed

Performing projection onto the space of divergence-free functions
GAMG:  Solving for p, Initial residual = 1, Final residual = 0.00652288, No Iterations 5
C_matrix(1,2,3) computed

Performing projection onto the space of divergence-free functions
GAMG:  Solving for p, Initial residual = 1, Final residual = 0.00801818, No Iterations 6
C_matrix(1,2,4) computed

Performing projection onto the space of divergence-free functions
GAMG:  Solving for p, Initial residual = 1, Final residual = 0.00922199, No Iterations 6
C_matrix(1,2,5) computed

Performing projection onto the space of divergence-free functions
GAMG:  Solving for p, Initial residual = 1, Final residual = 0.00749167, No Iterations 6
C_matrix(1,3,1) computed

Performing projection onto the space of divergence-free functions
GAMG:  Solving for p, Initial residual = 1, Final residual = 0.00631621, No Iterations 5
C_matrix(1,3,2) computed

Performing projection onto the space of divergence-free functions
GAMG:  Solving for p, Initial residual = 1, Final residual = 0.00682512, No Iterations 5
C_matrix(1,3,3) computed

Performing projection onto the space of divergence-free functions
GAMG:  Solving for p, Initial residual = 1, Final residual = 0.0083587, No Iterations 3
C_matrix(1,3,4) computed

Performing projection onto the space of divergence-free functions
GAMG:  Solving for p, Initial residual = 1, Final residual = 0.00453119, No Iterations 5
C_matrix(1,3,5) computed

Performing projection onto the space of divergence-free functions
GAMG:  Solving for p, Initial residual = 1, Final residual = 0.00658512, No Iterations 5
C_matrix(1,4,1) computed

Performing projection onto the space of divergence-free functions
GAMG:  Solving for p, Initial residual = 1, Final residual = 0.00762792, No Iterations 6
C_matrix(1,4,2) computed

Performing projection onto the space of divergence-free functions
GAMG:  Solving for p, Initial residual = 1, Final residual = 0.00797834, No Iterations 3
C_matrix(1,4,3) computed

Performing projection onto the space of divergence-free functions
GAMG:  Solving for p, Initial residual = 1, Final residual = 0.00703274, No Iterations 5
C_matrix(1,4,4) computed

Performing projection onto the space of divergence-free functions
GAMG:  Solving for p, Initial residual = 1, Final residual = 0.00948619, No Iterations 4
C_matrix(1,4,5) computed

Performing projection onto the space of divergence-free functions
GAMG:  Solving for p, Initial residual = 1, Final residual = 0.00963784, No Iterations 6
C_matrix(1,5,1) computed

Performing projection onto the space of divergence-free functions
GAMG:  Solving for p, Initial residual = 1, Final residual = 0.00882925, No Iterations 6
C_matrix(1,5,2) computed

Performing projection onto the space of divergence-free functions
GAMG:  Solving for p, Initial residual = 1, Final residual = 0.00995026, No Iterations 4
C_matrix(1,5,3) computed

Performing projection onto the space of divergence-free functions
GAMG:  Solving for p, Initial residual = 1, Final residual = 0.00927347, No Iterations 4
C_matrix(1,5,4) computed

Performing projection onto the space of divergence-free functions
GAMG:  Solving for p, Initial residual = 1, Final residual = 0.00430675, No Iterations 7
C_matrix(1,5,5) computed

Performing projection onto the space of divergence-free functions
GAMG:  Solving for p, Initial residual = 1, Final residual = 0.00574268, No Iterations 7
C_matrix(2,1,1) computed

Performing projection onto the space of divergence-free functions
GAMG:  Solving for p, Initial residual = 1, Final residual = 0.00971437, No Iterations 4
C_matrix(2,1,2) computed

Performing projection onto the space of divergence-free functions
GAMG:  Solving for p, Initial residual = 1, Final residual = 0.00791554, No Iterations 6
C_matrix(2,1,3) computed

Performing projection onto the space of divergence-free functions
GAMG:  Solving for p, Initial residual = 1, Final residual = 0.00690416, No Iterations 5
C_matrix(2,1,4) computed

Performing projection onto the space of divergence-free functions
GAMG:  Solving for p, Initial residual = 1, Final residual = 0.00987849, No Iterations 6
C_matrix(2,1,5) computed

Performing projection onto the space of divergence-free functions
GAMG:  Solving for p, Initial residual = 1, Final residual = 0.00969602, No Iterations 4
C_matrix(2,2,1) computed

Performing projection onto the space of divergence-free functions
GAMG:  Solving for p, Initial residual = 1, Final residual = 0.00640895, No Iterations 7
C_matrix(2,2,2) computed

Performing projection onto the space of divergence-free functions
GAMG:  Solving for p, Initial residual = 1, Final residual = 0.00652288, No Iterations 5
C_matrix(2,2,3) computed

Performing projection onto the space of divergence-free functions
GAMG:  Solving for p, Initial residual = 1, Final residual = 0.00801818, No Iterations 6
C_matrix(2,2,4) computed

Performing projection onto the space of divergence-free functions
GAMG:  Solving for p, Initial residual = 1, Final residual = 0.00922199, No Iterations 6
C_matrix(2,2,5) computed

Performing projection onto the space of divergence-free functions
GAMG:  Solving for p, Initial residual = 1, Final residual = 0.00749167, No Iterations 6
C_matrix(2,3,1) computed

Performing projection onto the space of divergence-free functions
GAMG:  Solving for p, Initial residual = 1, Final residual = 0.00631621, No Iterations 5
C_matrix(2,3,2) computed

Performing projection onto the space of divergence-free functions
GAMG:  Solving for p, Initial residual = 1, Final residual = 0.00682512, No Iterations 5
C_matrix(2,3,3) computed

Performing projection onto the space of divergence-free functions
GAMG:  Solving for p, Initial residual = 1, Final residual = 0.0083587, No Iterations 3
C_matrix(2,3,4) computed

Performing projection onto the space of divergence-free functions
GAMG:  Solving for p, Initial residual = 1, Final residual = 0.00453119, No Iterations 5
C_matrix(2,3,5) computed

Performing projection onto the space of divergence-free functions
GAMG:  Solving for p, Initial residual = 1, Final residual = 0.00658512, No Iterations 5
C_matrix(2,4,1) computed

Performing projection onto the space of divergence-free functions
GAMG:  Solving for p, Initial residual = 1, Final residual = 0.00762792, No Iterations 6
C_matrix(2,4,2) computed

Performing projection onto the space of divergence-free functions
GAMG:  Solving for p, Initial residual = 1, Final residual = 0.00797834, No Iterations 3
C_matrix(2,4,3) computed

Performing projection onto the space of divergence-free functions
GAMG:  Solving for p, Initial residual = 1, Final residual = 0.00703274, No Iterations 5
C_matrix(2,4,4) computed

Performing projection onto the space of divergence-free functions
GAMG:  Solving for p, Initial residual = 1, Final residual = 0.00948619, No Iterations 4
C_matrix(2,4,5) computed

Performing projection onto the space of divergence-free functions
GAMG:  Solving for p, Initial residual = 1, Final residual = 0.00963784, No Iterations 6
C_matrix(2,5,1) computed

Performing projection onto the space of divergence-free functions
GAMG:  Solving for p, Initial residual = 1, Final residual = 0.00882925, No Iterations 6
C_matrix(2,5,2) computed

Performing projection onto the space of divergence-free functions
GAMG:  Solving for p, Initial residual = 1, Final residual = 0.00995026, No Iterations 4
C_matrix(2,5,3) computed

Performing projection onto the space of divergence-free functions
GAMG:  Solving for p, Initial residual = 1, Final residual = 0.00927347, No Iterations 4
C_matrix(2,5,4) computed

Performing projection onto the space of divergence-free functions
GAMG:  Solving for p, Initial residual = 1, Final residual = 0.00430675, No Iterations 7
C_matrix(2,5,5) computed

Performing projection onto the space of divergence-free functions
GAMG:  Solving for p, Initial residual = 1, Final residual = 0.00574268, No Iterations 7
C_matrix(3,1,1) computed

Performing projection onto the space of divergence-free functions
GAMG:  Solving for p, Initial residual = 1, Final residual = 0.00971437, No Iterations 4
C_matrix(3,1,2) computed

Performing projection onto the space of divergence-free functions
GAMG:  Solving for p, Initial residual = 1, Final residual = 0.00791554, No Iterations 6
C_matrix(3,1,3) computed

Performing projection onto the space of divergence-free functions
GAMG:  Solving for p, Initial residual = 1, Final residual = 0.00690416, No Iterations 5
C_matrix(3,1,4) computed

Performing projection onto the space of divergence-free functions
GAMG:  Solving for p, Initial residual = 1, Final residual = 0.00987849, No Iterations 6
C_matrix(3,1,5) computed

Performing projection onto the space of divergence-free functions
GAMG:  Solving for p, Initial residual = 1, Final residual = 0.00969602, No Iterations 4
C_matrix(3,2,1) computed

Performing projection onto the space of divergence-free functions
GAMG:  Solving for p, Initial residual = 1, Final residual = 0.00640895, No Iterations 7
C_matrix(3,2,2) computed

Performing projection onto the space of divergence-free functions
GAMG:  Solving for p, Initial residual = 1, Final residual = 0.00652288, No Iterations 5
C_matrix(3,2,3) computed

Performing projection onto the space of divergence-free functions
GAMG:  Solving for p, Initial residual = 1, Final residual = 0.00801818, No Iterations 6
C_matrix(3,2,4) computed

Performing projection onto the space of divergence-free functions
GAMG:  Solving for p, Initial residual = 1, Final residual = 0.00922199, No Iterations 6
C_matrix(3,2,5) computed

Performing projection onto the space of divergence-free functions
GAMG:  Solving for p, Initial residual = 1, Final residual = 0.00749167, No Iterations 6
C_matrix(3,3,1) computed

Performing projection onto the space of divergence-free functions
GAMG:  Solving for p, Initial residual = 1, Final residual = 0.00631621, No Iterations 5
C_matrix(3,3,2) computed

Performing projection onto the space of divergence-free functions
GAMG:  Solving for p, Initial residual = 1, Final residual = 0.00682512, No Iterations 5
C_matrix(3,3,3) computed

Performing projection onto the space of divergence-free functions
GAMG:  Solving for p, Initial residual = 1, Final residual = 0.0083587, No Iterations 3
C_matrix(3,3,4) computed

Performing projection onto the space of divergence-free functions
GAMG:  Solving for p, Initial residual = 1, Final residual = 0.00453119, No Iterations 5
C_matrix(3,3,5) computed

Performing projection onto the space of divergence-free functions
GAMG:  Solving for p, Initial residual = 1, Final residual = 0.00658512, No Iterations 5
C_matrix(3,4,1) computed

Performing projection onto the space of divergence-free functions
GAMG:  Solving for p, Initial residual = 1, Final residual = 0.00762792, No Iterations 6
C_matrix(3,4,2) computed

Performing projection onto the space of divergence-free functions
GAMG:  Solving for p, Initial residual = 1, Final residual = 0.00797834, No Iterations 3
C_matrix(3,4,3) computed

Performing projection onto the space of divergence-free functions
GAMG:  Solving for p, Initial residual = 1, Final residual = 0.00703274, No Iterations 5
C_matrix(3,4,4) computed

Performing projection onto the space of divergence-free functions
GAMG:  Solving for p, Initial residual = 1, Final residual = 0.00948619, No Iterations 4
C_matrix(3,4,5) computed

Performing projection onto the space of divergence-free functions
GAMG:  Solving for p, Initial residual = 1, Final residual = 0.00963784, No Iterations 6
C_matrix(3,5,1) computed

Performing projection onto the space of divergence-free functions
GAMG:  Solving for p, Initial residual = 1, Final residual = 0.00882925, No Iterations 6
C_matrix(3,5,2) computed

Performing projection onto the space of divergence-free functions
GAMG:  Solving for p, Initial residual = 1, Final residual = 0.00995026, No Iterations 4
C_matrix(3,5,3) computed

Performing projection onto the space of divergence-free functions
GAMG:  Solving for p, Initial residual = 1, Final residual = 0.00927347, No Iterations 4
C_matrix(3,5,4) computed

Performing projection onto the space of divergence-free functions
GAMG:  Solving for p, Initial residual = 1, Final residual = 0.00430675, No Iterations 7
C_matrix(3,5,5) computed

Performing projection onto the space of divergence-free functions
GAMG:  Solving for p, Initial residual = 1, Final residual = 0.00574268, No Iterations 7
C_matrix(4,1,1) computed

Performing projection onto the space of divergence-free functions
GAMG:  Solving for p, Initial residual = 1, Final residual = 0.00971437, No Iterations 4
C_matrix(4,1,2) computed

Performing projection onto the space of divergence-free functions
GAMG:  Solving for p, Initial residual = 1, Final residual = 0.00791554, No Iterations 6
C_matrix(4,1,3) computed

Performing projection onto the space of divergence-free functions
GAMG:  Solving for p, Initial residual = 1, Final residual = 0.00690416, No Iterations 5
C_matrix(4,1,4) computed

Performing projection onto the space of divergence-free functions
GAMG:  Solving for p, Initial residual = 1, Final residual = 0.00987849, No Iterations 6
C_matrix(4,1,5) computed

Performing projection onto the space of divergence-free functions
GAMG:  Solving for p, Initial residual = 1, Final residual = 0.00969602, No Iterations 4
C_matrix(4,2,1) computed

Performing projection onto the space of divergence-free functions
GAMG:  Solving for p, Initial residual = 1, Final residual = 0.00640895, No Iterations 7
C_matrix(4,2,2) computed

Performing projection onto the space of divergence-free functions
GAMG:  Solving for p, Initial residual = 1, Final residual = 0.00652288, No Iterations 5
C_matrix(4,2,3) computed

Performing projection onto the space of divergence-free functions
GAMG:  Solving for p, Initial residual = 1, Final residual = 0.00801818, No Iterations 6
C_matrix(4,2,4) computed

Performing projection onto the space of divergence-free functions
GAMG:  Solving for p, Initial residual = 1, Final residual = 0.00922199, No Iterations 6
C_matrix(4,2,5) computed

Performing projection onto the space of divergence-free functions
GAMG:  Solving for p, Initial residual = 1, Final residual = 0.00749167, No Iterations 6
C_matrix(4,3,1) computed

Performing projection onto the space of divergence-free functions
GAMG:  Solving for p, Initial residual = 1, Final residual = 0.00631621, No Iterations 5
C_matrix(4,3,2) computed

Performing projection onto the space of divergence-free functions
GAMG:  Solving for p, Initial residual = 1, Final residual = 0.00682512, No Iterations 5
C_matrix(4,3,3) computed

Performing projection onto the space of divergence-free functions
GAMG:  Solving for p, Initial residual = 1, Final residual = 0.0083587, No Iterations 3
C_matrix(4,3,4) computed

Performing projection onto the space of divergence-free functions
GAMG:  Solving for p, Initial residual = 1, Final residual = 0.00453119, No Iterations 5
C_matrix(4,3,5) computed

Performing projection onto the space of divergence-free functions
GAMG:  Solving for p, Initial residual = 1, Final residual = 0.00658512, No Iterations 5
C_matrix(4,4,1) computed

Performing projection onto the space of divergence-free functions
GAMG:  Solving for p, Initial residual = 1, Final residual = 0.00762792, No Iterations 6
C_matrix(4,4,2) computed

Performing projection onto the space of divergence-free functions
GAMG:  Solving for p, Initial residual = 1, Final residual = 0.00797834, No Iterations 3
C_matrix(4,4,3) computed

Performing projection onto the space of divergence-free functions
GAMG:  Solving for p, Initial residual = 1, Final residual = 0.00703274, No Iterations 5
C_matrix(4,4,4) computed

Performing projection onto the space of divergence-free functions
GAMG:  Solving for p, Initial residual = 1, Final residual = 0.00948619, No Iterations 4
C_matrix(4,4,5) computed

Performing projection onto the space of divergence-free functions
GAMG:  Solving for p, Initial residual = 1, Final residual = 0.00963784, No Iterations 6
C_matrix(4,5,1) computed

Performing projection onto the space of divergence-free functions
GAMG:  Solving for p, Initial residual = 1, Final residual = 0.00882925, No Iterations 6
C_matrix(4,5,2) computed

Performing projection onto the space of divergence-free functions
GAMG:  Solving for p, Initial residual = 1, Final residual = 0.00995026, No Iterations 4
C_matrix(4,5,3) computed

Performing projection onto the space of divergence-free functions
GAMG:  Solving for p, Initial residual = 1, Final residual = 0.00927347, No Iterations 4
C_matrix(4,5,4) computed

Performing projection onto the space of divergence-free functions
GAMG:  Solving for p, Initial residual = 1, Final residual = 0.00430675, No Iterations 7
C_matrix(4,5,5) computed

Performing projection onto the space of divergence-free functions
GAMG:  Solving for p, Initial residual = 1, Final residual = 0.00574268, No Iterations 7
C_matrix(5,1,1) computed

Performing projection onto the space of divergence-free functions
GAMG:  Solving for p, Initial residual = 1, Final residual = 0.00971437, No Iterations 4
C_matrix(5,1,2) computed

Performing projection onto the space of divergence-free functions
GAMG:  Solving for p, Initial residual = 1, Final residual = 0.00791554, No Iterations 6
C_matrix(5,1,3) computed

Performing projection onto the space of divergence-free functions
GAMG:  Solving for p, Initial residual = 1, Final residual = 0.00690416, No Iterations 5
C_matrix(5,1,4) computed

Performing projection onto the space of divergence-free functions
GAMG:  Solving for p, Initial residual = 1, Final residual = 0.00987849, No Iterations 6
C_matrix(5,1,5) computed

Performing projection onto the space of divergence-free functions
GAMG:  Solving for p, Initial residual = 1, Final residual = 0.00969602, No Iterations 4
C_matrix(5,2,1) computed

Performing projection onto the space of divergence-free functions
GAMG:  Solving for p, Initial residual = 1, Final residual = 0.00640895, No Iterations 7
C_matrix(5,2,2) computed

Performing projection onto the space of divergence-free functions
GAMG:  Solving for p, Initial residual = 1, Final residual = 0.00652288, No Iterations 5
C_matrix(5,2,3) computed

Performing projection onto the space of divergence-free functions
GAMG:  Solving for p, Initial residual = 1, Final residual = 0.00801818, No Iterations 6
C_matrix(5,2,4) computed

Performing projection onto the space of divergence-free functions
GAMG:  Solving for p, Initial residual = 1, Final residual = 0.00922199, No Iterations 6
C_matrix(5,2,5) computed

Performing projection onto the space of divergence-free functions
GAMG:  Solving for p, Initial residual = 1, Final residual = 0.00749167, No Iterations 6
C_matrix(5,3,1) computed

Performing projection onto the space of divergence-free functions
GAMG:  Solving for p, Initial residual = 1, Final residual = 0.00631621, No Iterations 5
C_matrix(5,3,2) computed

Performing projection onto the space of divergence-free functions
GAMG:  Solving for p, Initial residual = 1, Final residual = 0.00682512, No Iterations 5
C_matrix(5,3,3) computed

Performing projection onto the space of divergence-free functions
GAMG:  Solving for p, Initial residual = 1, Final residual = 0.0083587, No Iterations 3
C_matrix(5,3,4) computed

Performing projection onto the space of divergence-free functions
GAMG:  Solving for p, Initial residual = 1, Final residual = 0.00453119, No Iterations 5
C_matrix(5,3,5) computed

Performing projection onto the space of divergence-free functions
GAMG:  Solving for p, Initial residual = 1, Final residual = 0.00658512, No Iterations 5
C_matrix(5,4,1) computed

Performing projection onto the space of divergence-free functions
GAMG:  Solving for p, Initial residual = 1, Final residual = 0.00762792, No Iterations 6
C_matrix(5,4,2) computed

Performing projection onto the space of divergence-free functions
GAMG:  Solving for p, Initial residual = 1, Final residual = 0.00797834, No Iterations 3
C_matrix(5,4,3) computed

Performing projection onto the space of divergence-free functions
GAMG:  Solving for p, Initial residual = 1, Final residual = 0.00703274, No Iterations 5
C_matrix(5,4,4) computed

Performing projection onto the space of divergence-free functions
GAMG:  Solving for p, Initial residual = 1, Final residual = 0.00948619, No Iterations 4
C_matrix(5,4,5) computed

Performing projection onto the space of divergence-free functions
GAMG:  Solving for p, Initial residual = 1, Final residual = 0.00963784, No Iterations 6
C_matrix(5,5,1) computed

Performing projection onto the space of divergence-free functions
GAMG:  Solving for p, Initial residual = 1, Final residual = 0.00882925, No Iterations 6
C_matrix(5,5,2) computed

Performing projection onto the space of divergence-free functions
GAMG:  Solving for p, Initial residual = 1, Final residual = 0.00995026, No Iterations 4
C_matrix(5,5,3) computed

Performing projection onto the space of divergence-free functions
GAMG:  Solving for p, Initial residual = 1, Final residual = 0.00927347, No Iterations 4
C_matrix(5,5,4) computed

Performing projection onto the space of divergence-free functions
GAMG:  Solving for p, Initial residual = 1, Final residual = 0.00430675, No Iterations 7
C_matrix(5,5,5) computed

Stochastic closure is considered.
Large-scale advection term
Computing the L matrix (turbulent diffusivity term)

Performing projection onto the space of divergence-free functions
GAMG:  Solving for p, Initial residual = 1, Final residual = 0.00791705, No Iterations 5
L_matrix(1,1) computed

Performing projection onto the space of divergence-free functions
GAMG:  Solving for p, Initial residual = 1, Final residual = 0.00641477, No Iterations 5
L_matrix(1,2) computed

Performing projection onto the space of divergence-free functions
GAMG:  Solving for p, Initial residual = 1, Final residual = 0.00675666, No Iterations 5
L_matrix(1,3) computed

Performing projection onto the space of divergence-free functions
GAMG:  Solving for p, Initial residual = 1, Final residual = 0.00545824, No Iterations 5
L_matrix(1,4) computed

Performing projection onto the space of divergence-free functions
GAMG:  Solving for p, Initial residual = 1, Final residual = 0.00791705, No Iterations 5
L_matrix(2,1) computed

Performing projection onto the space of divergence-free functions
GAMG:  Solving for p, Initial residual = 1, Final residual = 0.00641477, No Iterations 5
L_matrix(2,2) computed

Performing projection onto the space of divergence-free functions
GAMG:  Solving for p, Initial residual = 1, Final residual = 0.00675666, No Iterations 5
L_matrix(2,3) computed

Performing projection onto the space of divergence-free functions
GAMG:  Solving for p, Initial residual = 1, Final residual = 0.00545824, No Iterations 5
L_matrix(2,4) computed

Performing projection onto the space of divergence-free functions
GAMG:  Solving for p, Initial residual = 1, Final residual = 0.00791705, No Iterations 5
L_matrix(3,1) computed

Performing projection onto the space of divergence-free functions
GAMG:  Solving for p, Initial residual = 1, Final residual = 0.00641477, No Iterations 5
L_matrix(3,2) computed

Performing projection onto the space of divergence-free functions
GAMG:  Solving for p, Initial residual = 1, Final residual = 0.00675666, No Iterations 5
L_matrix(3,3) computed

Performing projection onto the space of divergence-free functions
GAMG:  Solving for p, Initial residual = 1, Final residual = 0.00545824, No Iterations 5
L_matrix(3,4) computed

Performing projection onto the space of divergence-free functions
GAMG:  Solving for p, Initial residual = 1, Final residual = 0.00791705, No Iterations 5
L_matrix(4,1) computed

Performing projection onto the space of divergence-free functions
GAMG:  Solving for p, Initial residual = 1, Final residual = 0.00641477, No Iterations 5
L_matrix(4,2) computed

Performing projection onto the space of divergence-free functions
GAMG:  Solving for p, Initial residual = 1, Final residual = 0.00675666, No Iterations 5
L_matrix(4,3) computed

Performing projection onto the space of divergence-free functions
GAMG:  Solving for p, Initial residual = 1, Final residual = 0.00545824, No Iterations 5
L_matrix(4,4) computed
Computing the L vector (turbulent diffusivity term)

Performing projection onto the space of divergence-free functions
GAMG:  Solving for p, Initial residual = 1, Final residual = 0.00892551, No Iterations 5
L_1_vector(1) computed

Performing projection onto the space of divergence-free functions
GAMG:  Solving for p, Initial residual = 1, Final residual = 0.00892551, No Iterations 5
L_1_vector(2) computed

Performing projection onto the space of divergence-free functions
GAMG:  Solving for p, Initial residual = 1, Final residual = 0.00892551, No Iterations 5
L_1_vector(3) computed

Performing projection onto the space of divergence-free functions
GAMG:  Solving for p, Initial residual = 1, Final residual = 0.00892551, No Iterations 5
L_1_vector(4) computed
Exporting matrices into .txt files
Exporting L matrix and vector

Turbulent diffusive term
Computing the S matrix (turbulent diffusivity term)

Performing projection onto the space of divergence-free functions
GAMG:  Solving for p, Initial residual = 1, Final residual = 0.00736813, No Iterations 6

Performing projection onto the space of divergence-free functions
GAMG:  Solving for p, Initial residual = 1, Final residual = 0.00653332, No Iterations 5

Performing projection onto the space of divergence-free functions
GAMG:  Solving for p, Initial residual = 1, Final residual = 0.00627304, No Iterations 5

Performing projection onto the space of divergence-free functions
GAMG:  Solving for p, Initial residual = 1, Final residual = 0.00759648, No Iterations 5

Performing projection onto the space of divergence-free functions
GAMG:  Solving for p, Initial residual = 1, Final residual = 0.00736813, No Iterations 6

Performing projection onto the space of divergence-free functions
GAMG:  Solving for p, Initial residual = 1, Final residual = 0.00653332, No Iterations 5

Performing projection onto the space of divergence-free functions
GAMG:  Solving for p, Initial residual = 1, Final residual = 0.00627304, No Iterations 5

Performing projection onto the space of divergence-free functions
GAMG:  Solving for p, Initial residual = 1, Final residual = 0.00759648, No Iterations 5

Performing projection onto the space of divergence-free functions
GAMG:  Solving for p, Initial residual = 1, Final residual = 0.00736813, No Iterations 6

Performing projection onto the space of divergence-free functions
GAMG:  Solving for p, Initial residual = 1, Final residual = 0.00653332, No Iterations 5

Performing projection onto the space of divergence-free functions
GAMG:  Solving for p, Initial residual = 1, Final residual = 0.00627304, No Iterations 5

Performing projection onto the space of divergence-free functions
GAMG:  Solving for p, Initial residual = 1, Final residual = 0.00759648, No Iterations 5

Performing projection onto the space of divergence-free functions
GAMG:  Solving for p, Initial residual = 1, Final residual = 0.00736813, No Iterations 6

Performing projection onto the space of divergence-free functions
GAMG:  Solving for p, Initial residual = 1, Final residual = 0.00653332, No Iterations 5

Performing projection onto the space of divergence-free functions
GAMG:  Solving for p, Initial residual = 1, Final residual = 0.00627304, No Iterations 5

Performing projection onto the space of divergence-free functions
GAMG:  Solving for p, Initial residual = 1, Final residual = 0.00759648, No Iterations 5

Performing projection onto the space of divergence-free functions
GAMG:  Solving for p, Initial residual = 1, Final residual = 0.00764248, No Iterations 7

Performing projection onto the space of divergence-free functions
GAMG:  Solving for p, Initial residual = 1, Final residual = 0.00764248, No Iterations 7

Performing projection onto the space of divergence-free functions
GAMG:  Solving for p, Initial residual = 1, Final residual = 0.00764248, No Iterations 7

Performing projection onto the space of divergence-free functions
GAMG:  Solving for p, Initial residual = 1, Final residual = 0.00764248, No Iterations 7

Exporting matrices into .txt files

Exporting S matrix


Mass Induce Terms
Mass matrix
 PseudoInverse Mass matrix
Condition number of M_matrix = 3.25731
Diffusion term with PseudoInverse Mass matrix
Advection term with PseudoInverse Mass matrix
Large-scale advection term with PseudoInverse Mass matrix
Turbulent diffusive term with PseudoInverse Mass matrix
Noises term
Computing the N matrix (noises term)
we will not considered Stochastic hyperreduction

Performing projection onto the space of divergence-free functions
GAMG:  Solving for p, Initial residual = 1, Final residual = 0.00625717, No Iterations 4
K_(1,0) ( epsilon1_(1) ) computed
K_(2,0) ( epsilon1_(1) ) computed
K_(3,0) ( epsilon1_(1) ) computed
K_(4,0) ( epsilon1_(1) ) computed

Performing projection onto the space of divergence-free functions
GAMG:  Solving for p, Initial residual = 1, Final residual = 0.00655378, No Iterations 4
K_(1,0) ( epsilon1_(2) ) computed
K_(2,0) ( epsilon1_(2) ) computed
K_(3,0) ( epsilon1_(2) ) computed
K_(4,0) ( epsilon1_(2) ) computed

Performing projection onto the space of divergence-free functions
GAMG:  Solving for p, Initial residual = 1, Final residual = 0.0066811, No Iterations 4
K_(1,0) ( epsilon1_(3) ) computed
K_(2,0) ( epsilon1_(3) ) computed
K_(3,0) ( epsilon1_(3) ) computed
K_(4,0) ( epsilon1_(3) ) computed

Performing projection onto the space of divergence-free functions
GAMG:  Solving for p, Initial residual = 1, Final residual = 0.00731513, No Iterations 4
K_(1,0) ( epsilon1_(4) ) computed
K_(2,0) ( epsilon1_(4) ) computed
K_(3,0) ( epsilon1_(4) ) computed
K_(4,0) ( epsilon1_(4) ) computed

Performing projection onto the space of divergence-free functions
GAMG:  Solving for p, Initial residual = 1, Final residual = 0.0097419, No Iterations 3
K_(1,0) ( epsilon2_(1,1) ) computed
K_(2,0) ( epsilon2_(1,1) ) computed
K_(3,0) ( epsilon2_(1,1) ) computed
K_(4,0) ( epsilon2_(1,1) ) computed

Performing projection onto the space of divergence-free functions
GAMG:  Solving for p, Initial residual = 1, Final residual = 0.00651882, No Iterations 4
K_(1,0) ( epsilon2_(1,2) ) computed
K_(2,0) ( epsilon2_(1,2) ) computed
K_(3,0) ( epsilon2_(1,2) ) computed
K_(4,0) ( epsilon2_(1,2) ) computed

Performing projection onto the space of divergence-free functions
GAMG:  Solving for p, Initial residual = 1, Final residual = 0.00749501, No Iterations 4
K_(1,0) ( epsilon2_(1,3) ) computed
K_(2,0) ( epsilon2_(1,3) ) computed
K_(3,0) ( epsilon2_(1,3) ) computed
K_(4,0) ( epsilon2_(1,3) ) computed

Performing projection onto the space of divergence-free functions
GAMG:  Solving for p, Initial residual = 1, Final residual = 0.00961548, No Iterations 4
K_(1,0) ( epsilon2_(1,4) ) computed
K_(2,0) ( epsilon2_(1,4) ) computed
K_(3,0) ( epsilon2_(1,4) ) computed
K_(4,0) ( epsilon2_(1,4) ) computed

Performing projection onto the space of divergence-free functions
GAMG:  Solving for p, Initial residual = 1, Final residual = 0.00625513, No Iterations 4
K_(1,0) ( epsilon2_(2,1) ) computed
K_(2,0) ( epsilon2_(2,1) ) computed
K_(3,0) ( epsilon2_(2,1) ) computed
K_(4,0) ( epsilon2_(2,1) ) computed

Performing projection onto the space of divergence-free functions
GAMG:  Solving for p, Initial residual = 1, Final residual = 0.00572234, No Iterations 4
K_(1,0) ( epsilon2_(2,2) ) computed
K_(2,0) ( epsilon2_(2,2) ) computed
K_(3,0) ( epsilon2_(2,2) ) computed
K_(4,0) ( epsilon2_(2,2) ) computed

Performing projection onto the space of divergence-free functions
GAMG:  Solving for p, Initial residual = 1, Final residual = 0.00960646, No Iterations 4
K_(1,0) ( epsilon2_(2,3) ) computed
K_(2,0) ( epsilon2_(2,3) ) computed
K_(3,0) ( epsilon2_(2,3) ) computed
K_(4,0) ( epsilon2_(2,3) ) computed

Performing projection onto the space of divergence-free functions
GAMG:  Solving for p, Initial residual = 1, Final residual = 0.00755452, No Iterations 4
K_(1,0) ( epsilon2_(2,4) ) computed
K_(2,0) ( epsilon2_(2,4) ) computed
K_(3,0) ( epsilon2_(2,4) ) computed
K_(4,0) ( epsilon2_(2,4) ) computed

Performing projection onto the space of divergence-free functions
GAMG:  Solving for p, Initial residual = 1, Final residual = 0.00775852, No Iterations 4
K_(1,0) ( epsilon2_(3,1) ) computed
K_(2,0) ( epsilon2_(3,1) ) computed
K_(3,0) ( epsilon2_(3,1) ) computed
K_(4,0) ( epsilon2_(3,1) ) computed

Performing projection onto the space of divergence-free functions
GAMG:  Solving for p, Initial residual = 1, Final residual = 0.00954523, No Iterations 4
K_(1,0) ( epsilon2_(3,2) ) computed
K_(2,0) ( epsilon2_(3,2) ) computed
K_(3,0) ( epsilon2_(3,2) ) computed
K_(4,0) ( epsilon2_(3,2) ) computed

Performing projection onto the space of divergence-free functions
GAMG:  Solving for p, Initial residual = 1, Final residual = 0.00515484, No Iterations 4
K_(1,0) ( epsilon2_(3,3) ) computed
K_(2,0) ( epsilon2_(3,3) ) computed
K_(3,0) ( epsilon2_(3,3) ) computed
K_(4,0) ( epsilon2_(3,3) ) computed

Performing projection onto the space of divergence-free functions
GAMG:  Solving for p, Initial residual = 1, Final residual = 0.00548449, No Iterations 4
K_(1,0) ( epsilon2_(3,4) ) computed
K_(2,0) ( epsilon2_(3,4) ) computed
K_(3,0) ( epsilon2_(3,4) ) computed
K_(4,0) ( epsilon2_(3,4) ) computed

Performing projection onto the space of divergence-free functions
GAMG:  Solving for p, Initial residual = 1, Final residual = 0.00943947, No Iterations 4
K_(1,0) ( epsilon2_(4,1) ) computed
K_(2,0) ( epsilon2_(4,1) ) computed
K_(3,0) ( epsilon2_(4,1) ) computed
K_(4,0) ( epsilon2_(4,1) ) computed

Performing projection onto the space of divergence-free functions
GAMG:  Solving for p, Initial residual = 1, Final residual = 0.00774883, No Iterations 4
K_(1,0) ( epsilon2_(4,2) ) computed
K_(2,0) ( epsilon2_(4,2) ) computed
K_(3,0) ( epsilon2_(4,2) ) computed
K_(4,0) ( epsilon2_(4,2) ) computed

Performing projection onto the space of divergence-free functions
GAMG:  Solving for p, Initial residual = 1, Final residual = 0.00531442, No Iterations 4
K_(1,0) ( epsilon2_(4,3) ) computed
K_(2,0) ( epsilon2_(4,3) ) computed
K_(3,0) ( epsilon2_(4,3) ) computed
K_(4,0) ( epsilon2_(4,3) ) computed

Performing projection onto the space of divergence-free functions
GAMG:  Solving for p, Initial residual = 1, Final residual = 0.00593219, No Iterations 4
K_(1,0) ( epsilon2_(4,4) ) computed
K_(2,0) ( epsilon2_(4,4) ) computed
K_(3,0) ( epsilon2_(4,4) ) computed
K_(4,0) ( epsilon2_(4,4) ) computed

Performing projection onto the space of divergence-free functions
GAMG:  Solving for p, Initial residual = 1, Final residual = 0.00563719, No Iterations 5
K_(1,1) ( epsilon2_(1,1) ) computed
K_(2,1) ( epsilon2_(1,1) ) computed
K_(3,1) ( epsilon2_(1,1) ) computed
K_(4,1) ( epsilon2_(1,1) ) computed

Performing projection onto the space of divergence-free functions
GAMG:  Solving for p, Initial residual = 1, Final residual = 0.00591824, No Iterations 5
K_(1,2) ( epsilon2_(1,1) ) computed
K_(2,2) ( epsilon2_(1,1) ) computed
K_(3,2) ( epsilon2_(1,1) ) computed
K_(4,2) ( epsilon2_(1,1) ) computed

Performing projection onto the space of divergence-free functions
GAMG:  Solving for p, Initial residual = 1, Final residual = 0.00632954, No Iterations 5
K_(1,3) ( epsilon2_(1,1) ) computed
K_(2,3) ( epsilon2_(1,1) ) computed
K_(3,3) ( epsilon2_(1,1) ) computed
K_(4,3) ( epsilon2_(1,1) ) computed

Performing projection onto the space of divergence-free functions
GAMG:  Solving for p, Initial residual = 1, Final residual = 0.00630494, No Iterations 5
K_(1,4) ( epsilon2_(1,1) ) computed
K_(2,4) ( epsilon2_(1,1) ) computed
K_(3,4) ( epsilon2_(1,1) ) computed
K_(4,4) ( epsilon2_(1,1) ) computed

Performing projection onto the space of divergence-free functions
GAMG:  Solving for p, Initial residual = 1, Final residual = 0.00705367, No Iterations 5
K_(1,1) ( epsilon2_(1,2) ) computed
K_(2,1) ( epsilon2_(1,2) ) computed
K_(3,1) ( epsilon2_(1,2) ) computed
K_(4,1) ( epsilon2_(1,2) ) computed

Performing projection onto the space of divergence-free functions
GAMG:  Solving for p, Initial residual = 1, Final residual = 0.00909921, No Iterations 4
K_(1,2) ( epsilon2_(1,2) ) computed
K_(2,2) ( epsilon2_(1,2) ) computed
K_(3,2) ( epsilon2_(1,2) ) computed
K_(4,2) ( epsilon2_(1,2) ) computed

Performing projection onto the space of divergence-free functions
GAMG:  Solving for p, Initial residual = 1, Final residual = 0.00603511, No Iterations 5
K_(1,3) ( epsilon2_(1,2) ) computed
K_(2,3) ( epsilon2_(1,2) ) computed
K_(3,3) ( epsilon2_(1,2) ) computed
K_(4,3) ( epsilon2_(1,2) ) computed

Performing projection onto the space of divergence-free functions
GAMG:  Solving for p, Initial residual = 1, Final residual = 0.00993355, No Iterations 4
K_(1,4) ( epsilon2_(1,2) ) computed
K_(2,4) ( epsilon2_(1,2) ) computed
K_(3,4) ( epsilon2_(1,2) ) computed
K_(4,4) ( epsilon2_(1,2) ) computed

Performing projection onto the space of divergence-free functions
GAMG:  Solving for p, Initial residual = 1, Final residual = 0.00496411, No Iterations 5
K_(1,1) ( epsilon2_(1,3) ) computed
K_(2,1) ( epsilon2_(1,3) ) computed
K_(3,1) ( epsilon2_(1,3) ) computed
K_(4,1) ( epsilon2_(1,3) ) computed

Performing projection onto the space of divergence-free functions
GAMG:  Solving for p, Initial residual = 1, Final residual = 0.00632327, No Iterations 5
K_(1,2) ( epsilon2_(1,3) ) computed
K_(2,2) ( epsilon2_(1,3) ) computed
K_(3,2) ( epsilon2_(1,3) ) computed
K_(4,2) ( epsilon2_(1,3) ) computed

Performing projection onto the space of divergence-free functions
GAMG:  Solving for p, Initial residual = 1, Final residual = 0.006115, No Iterations 5
K_(1,3) ( epsilon2_(1,3) ) computed
K_(2,3) ( epsilon2_(1,3) ) computed
K_(3,3) ( epsilon2_(1,3) ) computed
K_(4,3) ( epsilon2_(1,3) ) computed

Performing projection onto the space of divergence-free functions
GAMG:  Solving for p, Initial residual = 1, Final residual = 0.00613641, No Iterations 5
K_(1,4) ( epsilon2_(1,3) ) computed
K_(2,4) ( epsilon2_(1,3) ) computed
K_(3,4) ( epsilon2_(1,3) ) computed
K_(4,4) ( epsilon2_(1,3) ) computed

Performing projection onto the space of divergence-free functions
GAMG:  Solving for p, Initial residual = 1, Final residual = 0.00609169, No Iterations 5
K_(1,1) ( epsilon2_(1,4) ) computed
K_(2,1) ( epsilon2_(1,4) ) computed
K_(3,1) ( epsilon2_(1,4) ) computed
K_(4,1) ( epsilon2_(1,4) ) computed

Performing projection onto the space of divergence-free functions
GAMG:  Solving for p, Initial residual = 1, Final residual = 0.00477143, No Iterations 5
K_(1,2) ( epsilon2_(1,4) ) computed
K_(2,2) ( epsilon2_(1,4) ) computed
K_(3,2) ( epsilon2_(1,4) ) computed
K_(4,2) ( epsilon2_(1,4) ) computed

Performing projection onto the space of divergence-free functions
GAMG:  Solving for p, Initial residual = 1, Final residual = 0.00598193, No Iterations 5
K_(1,3) ( epsilon2_(1,4) ) computed
K_(2,3) ( epsilon2_(1,4) ) computed
K_(3,3) ( epsilon2_(1,4) ) computed
K_(4,3) ( epsilon2_(1,4) ) computed

Performing projection onto the space of divergence-free functions
GAMG:  Solving for p, Initial residual = 1, Final residual = 0.00652394, No Iterations 5
K_(1,4) ( epsilon2_(1,4) ) computed
K_(2,4) ( epsilon2_(1,4) ) computed
K_(3,4) ( epsilon2_(1,4) ) computed
K_(4,4) ( epsilon2_(1,4) ) computed

Performing projection onto the space of divergence-free functions
GAMG:  Solving for p, Initial residual = 1, Final residual = 0.0069463, No Iterations 5
K_(1,1) ( epsilon2_(2,1) ) computed
K_(2,1) ( epsilon2_(2,1) ) computed
K_(3,1) ( epsilon2_(2,1) ) computed
K_(4,1) ( epsilon2_(2,1) ) computed

Performing projection onto the space of divergence-free functions
GAMG:  Solving for p, Initial residual = 1, Final residual = 0.00492349, No Iterations 5
K_(1,2) ( epsilon2_(2,1) ) computed
K_(2,2) ( epsilon2_(2,1) ) computed
K_(3,2) ( epsilon2_(2,1) ) computed
K_(4,2) ( epsilon2_(2,1) ) computed

Performing projection onto the space of divergence-free functions
GAMG:  Solving for p, Initial residual = 1, Final residual = 0.00636294, No Iterations 5
K_(1,3) ( epsilon2_(2,1) ) computed
K_(2,3) ( epsilon2_(2,1) ) computed
K_(3,3) ( epsilon2_(2,1) ) computed
K_(4,3) ( epsilon2_(2,1) ) computed

Performing projection onto the space of divergence-free functions
GAMG:  Solving for p, Initial residual = 1, Final residual = 0.00539564, No Iterations 5
K_(1,4) ( epsilon2_(2,1) ) computed
K_(2,4) ( epsilon2_(2,1) ) computed
K_(3,4) ( epsilon2_(2,1) ) computed
K_(4,4) ( epsilon2_(2,1) ) computed

Performing projection onto the space of divergence-free functions
GAMG:  Solving for p, Initial residual = 1, Final residual = 0.00629617, No Iterations 5
K_(1,1) ( epsilon2_(2,2) ) computed
K_(2,1) ( epsilon2_(2,2) ) computed
K_(3,1) ( epsilon2_(2,2) ) computed
K_(4,1) ( epsilon2_(2,2) ) computed

Performing projection onto the space of divergence-free functions
GAMG:  Solving for p, Initial residual = 1, Final residual = 0.00555589, No Iterations 5
K_(1,2) ( epsilon2_(2,2) ) computed
K_(2,2) ( epsilon2_(2,2) ) computed
K_(3,2) ( epsilon2_(2,2) ) computed
K_(4,2) ( epsilon2_(2,2) ) computed

Performing projection onto the space of divergence-free functions
GAMG:  Solving for p, Initial residual = 1, Final residual = 0.00634279, No Iterations 5
K_(1,3) ( epsilon2_(2,2) ) computed
K_(2,3) ( epsilon2_(2,2) ) computed
K_(3,3) ( epsilon2_(2,2) ) computed
K_(4,3) ( epsilon2_(2,2) ) computed

Performing projection onto the space of divergence-free functions
GAMG:  Solving for p, Initial residual = 1, Final residual = 0.00573087, No Iterations 5
K_(1,4) ( epsilon2_(2,2) ) computed
K_(2,4) ( epsilon2_(2,2) ) computed
K_(3,4) ( epsilon2_(2,2) ) computed
K_(4,4) ( epsilon2_(2,2) ) computed

Performing projection onto the space of divergence-free functions
GAMG:  Solving for p, Initial residual = 1, Final residual = 0.00588393, No Iterations 5
K_(1,1) ( epsilon2_(2,3) ) computed
K_(2,1) ( epsilon2_(2,3) ) computed
K_(3,1) ( epsilon2_(2,3) ) computed
K_(4,1) ( epsilon2_(2,3) ) computed

Performing projection onto the space of divergence-free functions
GAMG:  Solving for p, Initial residual = 1, Final residual = 0.00495543, No Iterations 5
K_(1,2) ( epsilon2_(2,3) ) computed
K_(2,2) ( epsilon2_(2,3) ) computed
K_(3,2) ( epsilon2_(2,3) ) computed
K_(4,2) ( epsilon2_(2,3) ) computed

Performing projection onto the space of divergence-free functions
GAMG:  Solving for p, Initial residual = 1, Final residual = 0.00601209, No Iterations 5
K_(1,3) ( epsilon2_(2,3) ) computed
K_(2,3) ( epsilon2_(2,3) ) computed
K_(3,3) ( epsilon2_(2,3) ) computed
K_(4,3) ( epsilon2_(2,3) ) computed

Performing projection onto the space of divergence-free functions
GAMG:  Solving for p, Initial residual = 1, Final residual = 0.00662897, No Iterations 5
K_(1,4) ( epsilon2_(2,3) ) computed
K_(2,4) ( epsilon2_(2,3) ) computed
K_(3,4) ( epsilon2_(2,3) ) computed
K_(4,4) ( epsilon2_(2,3) ) computed

Performing projection onto the space of divergence-free functions
GAMG:  Solving for p, Initial residual = 1, Final residual = 0.00478798, No Iterations 5
K_(1,1) ( epsilon2_(2,4) ) computed
K_(2,1) ( epsilon2_(2,4) ) computed
K_(3,1) ( epsilon2_(2,4) ) computed
K_(4,1) ( epsilon2_(2,4) ) computed

Performing projection onto the space of divergence-free functions
GAMG:  Solving for p, Initial residual = 1, Final residual = 0.0064253, No Iterations 5
K_(1,2) ( epsilon2_(2,4) ) computed
K_(2,2) ( epsilon2_(2,4) ) computed
K_(3,2) ( epsilon2_(2,4) ) computed
K_(4,2) ( epsilon2_(2,4) ) computed

Performing projection onto the space of divergence-free functions
GAMG:  Solving for p, Initial residual = 1, Final residual = 0.00595324, No Iterations 5
K_(1,3) ( epsilon2_(2,4) ) computed
K_(2,3) ( epsilon2_(2,4) ) computed
K_(3,3) ( epsilon2_(2,4) ) computed
K_(4,3) ( epsilon2_(2,4) ) computed

Performing projection onto the space of divergence-free functions
GAMG:  Solving for p, Initial residual = 1, Final residual = 0.00611978, No Iterations 5
K_(1,4) ( epsilon2_(2,4) ) computed
K_(2,4) ( epsilon2_(2,4) ) computed
K_(3,4) ( epsilon2_(2,4) ) computed
K_(4,4) ( epsilon2_(2,4) ) computed

Performing projection onto the space of divergence-free functions
GAMG:  Solving for p, Initial residual = 1, Final residual = 0.00916483, No Iterations 4
K_(1,1) ( epsilon2_(3,1) ) computed
K_(2,1) ( epsilon2_(3,1) ) computed
K_(3,1) ( epsilon2_(3,1) ) computed
K_(4,1) ( epsilon2_(3,1) ) computed

Performing projection onto the space of divergence-free functions
GAMG:  Solving for p, Initial residual = 1, Final residual = 0.00674008, No Iterations 5
K_(1,2) ( epsilon2_(3,1) ) computed
K_(2,2) ( epsilon2_(3,1) ) computed
K_(3,2) ( epsilon2_(3,1) ) computed
K_(4,2) ( epsilon2_(3,1) ) computed

Performing projection onto the space of divergence-free functions
GAMG:  Solving for p, Initial residual = 1, Final residual = 0.00555274, No Iterations 5
K_(1,3) ( epsilon2_(3,1) ) computed
K_(2,3) ( epsilon2_(3,1) ) computed
K_(3,3) ( epsilon2_(3,1) ) computed
K_(4,3) ( epsilon2_(3,1) ) computed

Performing projection onto the space of divergence-free functions
GAMG:  Solving for p, Initial residual = 1, Final residual = 0.00593809, No Iterations 5
K_(1,4) ( epsilon2_(3,1) ) computed
K_(2,4) ( epsilon2_(3,1) ) computed
K_(3,4) ( epsilon2_(3,1) ) computed
K_(4,4) ( epsilon2_(3,1) ) computed

Performing projection onto the space of divergence-free functions
GAMG:  Solving for p, Initial residual = 1, Final residual = 0.00647139, No Iterations 5
K_(1,1) ( epsilon2_(3,2) ) computed
K_(2,1) ( epsilon2_(3,2) ) computed
K_(3,1) ( epsilon2_(3,2) ) computed
K_(4,1) ( epsilon2_(3,2) ) computed

Performing projection onto the space of divergence-free functions
GAMG:  Solving for p, Initial residual = 1, Final residual = 0.00995172, No Iterations 4
K_(1,2) ( epsilon2_(3,2) ) computed
K_(2,2) ( epsilon2_(3,2) ) computed
K_(3,2) ( epsilon2_(3,2) ) computed
K_(4,2) ( epsilon2_(3,2) ) computed

Performing projection onto the space of divergence-free functions
GAMG:  Solving for p, Initial residual = 1, Final residual = 0.0058628, No Iterations 5
K_(1,3) ( epsilon2_(3,2) ) computed
K_(2,3) ( epsilon2_(3,2) ) computed
K_(3,3) ( epsilon2_(3,2) ) computed
K_(4,3) ( epsilon2_(3,2) ) computed

Performing projection onto the space of divergence-free functions
GAMG:  Solving for p, Initial residual = 1, Final residual = 0.00630252, No Iterations 5
K_(1,4) ( epsilon2_(3,2) ) computed
K_(2,4) ( epsilon2_(3,2) ) computed
K_(3,4) ( epsilon2_(3,2) ) computed
K_(4,4) ( epsilon2_(3,2) ) computed

Performing projection onto the space of divergence-free functions
GAMG:  Solving for p, Initial residual = 1, Final residual = 0.00463723, No Iterations 5
K_(1,1) ( epsilon2_(3,3) ) computed
K_(2,1) ( epsilon2_(3,3) ) computed
K_(3,1) ( epsilon2_(3,3) ) computed
K_(4,1) ( epsilon2_(3,3) ) computed

Performing projection onto the space of divergence-free functions
GAMG:  Solving for p, Initial residual = 1, Final residual = 0.00902238, No Iterations 4
K_(1,2) ( epsilon2_(3,3) ) computed
K_(2,2) ( epsilon2_(3,3) ) computed
K_(3,2) ( epsilon2_(3,3) ) computed
K_(4,2) ( epsilon2_(3,3) ) computed

Performing projection onto the space of divergence-free functions
GAMG:  Solving for p, Initial residual = 1, Final residual = 0.00808845, No Iterations 4
K_(1,3) ( epsilon2_(3,3) ) computed
K_(2,3) ( epsilon2_(3,3) ) computed
K_(3,3) ( epsilon2_(3,3) ) computed
K_(4,3) ( epsilon2_(3,3) ) computed

Performing projection onto the space of divergence-free functions
GAMG:  Solving for p, Initial residual = 1, Final residual = 0.0062531, No Iterations 4
K_(1,4) ( epsilon2_(3,3) ) computed
K_(2,4) ( epsilon2_(3,3) ) computed
K_(3,4) ( epsilon2_(3,3) ) computed
K_(4,4) ( epsilon2_(3,3) ) computed

Performing projection onto the space of divergence-free functions
GAMG:  Solving for p, Initial residual = 1, Final residual = 0.00991559, No Iterations 4
K_(1,1) ( epsilon2_(3,4) ) computed
K_(2,1) ( epsilon2_(3,4) ) computed
K_(3,1) ( epsilon2_(3,4) ) computed
K_(4,1) ( epsilon2_(3,4) ) computed

Performing projection onto the space of divergence-free functions
GAMG:  Solving for p, Initial residual = 1, Final residual = 0.00540326, No Iterations 5
K_(1,2) ( epsilon2_(3,4) ) computed
K_(2,2) ( epsilon2_(3,4) ) computed
K_(3,2) ( epsilon2_(3,4) ) computed
K_(4,2) ( epsilon2_(3,4) ) computed

Performing projection onto the space of divergence-free functions
GAMG:  Solving for p, Initial residual = 1, Final residual = 0.00696977, No Iterations 4
K_(1,3) ( epsilon2_(3,4) ) computed
K_(2,3) ( epsilon2_(3,4) ) computed
K_(3,3) ( epsilon2_(3,4) ) computed
K_(4,3) ( epsilon2_(3,4) ) computed

Performing projection onto the space of divergence-free functions
GAMG:  Solving for p, Initial residual = 1, Final residual = 0.00873641, No Iterations 4
K_(1,4) ( epsilon2_(3,4) ) computed
K_(2,4) ( epsilon2_(3,4) ) computed
K_(3,4) ( epsilon2_(3,4) ) computed
K_(4,4) ( epsilon2_(3,4) ) computed

Performing projection onto the space of divergence-free functions
GAMG:  Solving for p, Initial residual = 1, Final residual = 0.00669755, No Iterations 5
K_(1,1) ( epsilon2_(4,1) ) computed
K_(2,1) ( epsilon2_(4,1) ) computed
K_(3,1) ( epsilon2_(4,1) ) computed
K_(4,1) ( epsilon2_(4,1) ) computed

Performing projection onto the space of divergence-free functions
GAMG:  Solving for p, Initial residual = 1, Final residual = 0.00967, No Iterations 4
K_(1,2) ( epsilon2_(4,1) ) computed
K_(2,2) ( epsilon2_(4,1) ) computed
K_(3,2) ( epsilon2_(4,1) ) computed
K_(4,2) ( epsilon2_(4,1) ) computed

Performing projection onto the space of divergence-free functions
GAMG:  Solving for p, Initial residual = 1, Final residual = 0.00583376, No Iterations 5
K_(1,3) ( epsilon2_(4,1) ) computed
K_(2,3) ( epsilon2_(4,1) ) computed
K_(3,3) ( epsilon2_(4,1) ) computed
K_(4,3) ( epsilon2_(4,1) ) computed

Performing projection onto the space of divergence-free functions
GAMG:  Solving for p, Initial residual = 1, Final residual = 0.00609325, No Iterations 5
K_(1,4) ( epsilon2_(4,1) ) computed
K_(2,4) ( epsilon2_(4,1) ) computed
K_(3,4) ( epsilon2_(4,1) ) computed
K_(4,4) ( epsilon2_(4,1) ) computed

Performing projection onto the space of divergence-free functions
GAMG:  Solving for p, Initial residual = 1, Final residual = 0.00920244, No Iterations 4
K_(1,1) ( epsilon2_(4,2) ) computed
K_(2,1) ( epsilon2_(4,2) ) computed
K_(3,1) ( epsilon2_(4,2) ) computed
K_(4,1) ( epsilon2_(4,2) ) computed

Performing projection onto the space of divergence-free functions
GAMG:  Solving for p, Initial residual = 1, Final residual = 0.00671808, No Iterations 5
K_(1,2) ( epsilon2_(4,2) ) computed
K_(2,2) ( epsilon2_(4,2) ) computed
K_(3,2) ( epsilon2_(4,2) ) computed
K_(4,2) ( epsilon2_(4,2) ) computed

Performing projection onto the space of divergence-free functions
GAMG:  Solving for p, Initial residual = 1, Final residual = 0.00557641, No Iterations 5
K_(1,3) ( epsilon2_(4,2) ) computed
K_(2,3) ( epsilon2_(4,2) ) computed
K_(3,3) ( epsilon2_(4,2) ) computed
K_(4,3) ( epsilon2_(4,2) ) computed

Performing projection onto the space of divergence-free functions
GAMG:  Solving for p, Initial residual = 1, Final residual = 0.00593943, No Iterations 5
K_(1,4) ( epsilon2_(4,2) ) computed
K_(2,4) ( epsilon2_(4,2) ) computed
K_(3,4) ( epsilon2_(4,2) ) computed
K_(4,4) ( epsilon2_(4,2) ) computed

Performing projection onto the space of divergence-free functions
GAMG:  Solving for p, Initial residual = 1, Final residual = 0.00935773, No Iterations 4
K_(1,1) ( epsilon2_(4,3) ) computed
K_(2,1) ( epsilon2_(4,3) ) computed
K_(3,1) ( epsilon2_(4,3) ) computed
K_(4,1) ( epsilon2_(4,3) ) computed

Performing projection onto the space of divergence-free functions
GAMG:  Solving for p, Initial residual = 1, Final residual = 0.00576533, No Iterations 5
K_(1,2) ( epsilon2_(4,3) ) computed
K_(2,2) ( epsilon2_(4,3) ) computed
K_(3,2) ( epsilon2_(4,3) ) computed
K_(4,2) ( epsilon2_(4,3) ) computed

Performing projection onto the space of divergence-free functions
GAMG:  Solving for p, Initial residual = 1, Final residual = 0.0062443, No Iterations 4
K_(1,3) ( epsilon2_(4,3) ) computed
K_(2,3) ( epsilon2_(4,3) ) computed
K_(3,3) ( epsilon2_(4,3) ) computed
K_(4,3) ( epsilon2_(4,3) ) computed

Performing projection onto the space of divergence-free functions
GAMG:  Solving for p, Initial residual = 1, Final residual = 0.00857236, No Iterations 4
K_(1,4) ( epsilon2_(4,3) ) computed
K_(2,4) ( epsilon2_(4,3) ) computed
K_(3,4) ( epsilon2_(4,3) ) computed
K_(4,4) ( epsilon2_(4,3) ) computed

Performing projection onto the space of divergence-free functions
GAMG:  Solving for p, Initial residual = 1, Final residual = 0.00430187, No Iterations 5
K_(1,1) ( epsilon2_(4,4) ) computed
K_(2,1) ( epsilon2_(4,4) ) computed
K_(3,1) ( epsilon2_(4,4) ) computed
K_(4,1) ( epsilon2_(4,4) ) computed

Performing projection onto the space of divergence-free functions
GAMG:  Solving for p, Initial residual = 1, Final residual = 0.00986786, No Iterations 4
K_(1,2) ( epsilon2_(4,4) ) computed
K_(2,2) ( epsilon2_(4,4) ) computed
K_(3,2) ( epsilon2_(4,4) ) computed
K_(4,2) ( epsilon2_(4,4) ) computed

Performing projection onto the space of divergence-free functions
GAMG:  Solving for p, Initial residual = 1, Final residual = 0.00802142, No Iterations 4
K_(1,3) ( epsilon2_(4,4) ) computed
K_(2,3) ( epsilon2_(4,4) ) computed
K_(3,3) ( epsilon2_(4,4) ) computed
K_(4,3) ( epsilon2_(4,4) ) computed

Performing projection onto the space of divergence-free functions
GAMG:  Solving for p, Initial residual = 1, Final residual = 0.00709658, No Iterations 4
K_(1,4) ( epsilon2_(4,4) ) computed
K_(2,4) ( epsilon2_(4,4) ) computed
K_(3,4) ( epsilon2_(4,4) ) computed
K_(4,4) ( epsilon2_(4,4) ) computed
Using Eigen EigenSolver 
Exporting matrices into .txt files
Exporting N matrix

Reducing Noises term
0.890843
Exporting matrices into .txt files
Exporting N matrix

Reducing Noises term with PseudoInverse Mass matrix
-------------------------------------------------------------------------------------------
IthacaFV Resolver Full order pressure
2 realizations of the resolution have been launched


 --- Resolution without Assimilation ---

 --- Resolution without saving Brownians ---

     NOTE : run takes 1e-05 seconds before resolution (getting parameters)


     NOTE : run takes 0.015126 seconds for resolution

Cf. [python files] in ./ITHACAoutput/Reduced_coeff_4_0.01_2_fullOrderPressure_H1_centered_Ito/ :
   from approx_temporalModes_U_0.npy to approx_temporalModes_U_1.npy
-------------------------------------------------------------------------------------------
IthacaFV Synthetizer Mean
-------------------------------------------------------------------------------------------
IthacaFV Synthetizer Error
---------------------------------------END------------------------------------------------
RedLUM simulate (ver:9a6ca9b0) END
